<?xml version="1.0" encoding="UTF-8" standalone="no"?>
<!-- Created with Inkscape (http://www.inkscape.org/) -->

<svg
   xmlns:dc="http://purl.org/dc/elements/1.1/"
   xmlns:cc="http://creativecommons.org/ns#"
   xmlns:rdf="http://www.w3.org/1999/02/22-rdf-syntax-ns#"
   xmlns:svg="http://www.w3.org/2000/svg"
   xmlns="http://www.w3.org/2000/svg"
   xmlns:xlink="http://www.w3.org/1999/xlink"
   xmlns:sodipodi="http://sodipodi.sourceforge.net/DTD/sodipodi-0.dtd"
   xmlns:inkscape="http://www.inkscape.org/namespaces/inkscape"
   width="1144.7802"
   height="921.50116"
   id="svg4507"
   version="1.1"
   inkscape:version="0.91 r"
   sodipodi:docname="expsetup.svg"
   inkscape:export-filename="/home/svoboda/mnt/buon/GW/Experiments/EdgePlasmaPhysics/ParticleFlux/BallPenProbe/Experiments/1216IntroHS/setup/ExpSetup.png"
   inkscape:export-xdpi="200.02724"
   inkscape:export-ydpi="200.02724">
  <defs
     id="defs4509">
    <linearGradient
       inkscape:collect="always"
       id="linearGradient9141">
      <stop
         style="stop-color:#ff0000;stop-opacity:1;"
         offset="0"
         id="stop9143" />
      <stop
         style="stop-color:#ff0000;stop-opacity:0;"
         offset="1"
         id="stop9145" />
    </linearGradient>
    <marker
       inkscape:stockid="Arrow1Mstart"
       orient="auto"
       refY="0"
       refX="0"
       id="Arrow1Mstart"
       style="overflow:visible">
      <path
         id="path3949"
         d="M 0,0 5,-5 -12.5,0 5,5 0,0 Z"
         style="fill-rule:evenodd;stroke:#000000;stroke-width:1pt"
         transform="matrix(0.4,0,0,0.4,4,0)"
         inkscape:connector-curvature="0" />
    </marker>
    <marker
       inkscape:stockid="Arrow1Send"
       orient="auto"
       refY="0"
       refX="0"
       id="Arrow1Send"
       style="overflow:visible">
      <path
         id="path3958"
         d="M 0,0 5,-5 -12.5,0 5,5 0,0 Z"
         style="fill-rule:evenodd;stroke:#000000;stroke-width:1pt"
         transform="matrix(-0.2,0,0,-0.2,-1.2,0)"
         inkscape:connector-curvature="0" />
    </marker>
    <marker
       inkscape:stockid="Arrow1Mend"
       orient="auto"
       refY="0"
       refX="0"
       id="Arrow1Mend"
       style="overflow:visible">
      <path
         id="path3952"
         d="M 0,0 5,-5 -12.5,0 5,5 0,0 Z"
         style="fill-rule:evenodd;stroke:#000000;stroke-width:1pt"
         transform="matrix(-0.4,0,0,-0.4,-4,0)"
         inkscape:connector-curvature="0" />
    </marker>
    <marker
       inkscape:stockid="Arrow2Mend"
       orient="auto"
       refY="0"
       refX="0"
       id="Arrow2Mend"
       style="overflow:visible">
      <path
         id="path3970"
         style="fill-rule:evenodd;stroke-width:0.625;stroke-linejoin:round"
         d="M 8.7185878,4.0337352 -2.2072895,0.01601326 8.7185884,-4.0017078 c -1.7454984,2.3720609 -1.7354408,5.6174519 -6e-7,8.035443 z"
         transform="scale(-0.6,-0.6)"
         inkscape:connector-curvature="0" />
    </marker>
    <marker
       inkscape:stockid="Arrow1Lend"
       orient="auto"
       refY="0"
       refX="0"
       id="Arrow1Lend"
       style="overflow:visible">
      <path
         id="path3946"
         d="M 0,0 5,-5 -12.5,0 5,5 0,0 Z"
         style="fill-rule:evenodd;stroke:#000000;stroke-width:1pt"
         transform="matrix(-0.8,0,0,-0.8,-10,0)"
         inkscape:connector-curvature="0" />
    </marker>
    <linearGradient
       inkscape:collect="always"
       id="linearGradient3790">
      <stop
         style="stop-color:#ff0000;stop-opacity:1;"
         offset="0"
         id="stop3792" />
      <stop
         style="stop-color:#ff0000;stop-opacity:0;"
         offset="1"
         id="stop3794" />
    </linearGradient>
    <radialGradient
       inkscape:collect="always"
       xlink:href="#linearGradient3790"
       id="radialGradient3796"
       cx="309.10669"
       cy="487.68692"
       fx="309.10669"
       fy="487.68692"
       r="115.17954"
       gradientUnits="userSpaceOnUse" />
    <radialGradient
       inkscape:collect="always"
       xlink:href="#linearGradient3790"
       id="radialGradient9017"
       gradientUnits="userSpaceOnUse"
       cx="309.10669"
       cy="487.68692"
       fx="309.10669"
       fy="487.68692"
       r="115.17954"
       gradientTransform="matrix(2.5833146,0,0,2.5931784,-17.3282,-648.99709)" />
    <radialGradient
       inkscape:collect="always"
       xlink:href="#linearGradient9141"
       id="radialGradient9147"
       cx="309.10669"
       cy="487.68692"
       fx="309.10669"
       fy="487.68692"
       r="116.14631"
       gradientUnits="userSpaceOnUse"
       gradientTransform="matrix(2.5859471,0,0,2.5859471,550.60538,-1342.0793)" />
  </defs>
  <sodipodi:namedview
     id="base"
     pagecolor="#ffffff"
     bordercolor="#666666"
     borderopacity="1.0"
     inkscape:pageopacity="0.0"
     inkscape:pageshadow="2"
     inkscape:zoom="0.66066849"
     inkscape:cx="604.3844"
     inkscape:cy="370.14169"
     inkscape:document-units="mm"
     inkscape:current-layer="layer1"
     showgrid="false"
     inkscape:window-width="2048"
     inkscape:window-height="1100"
     inkscape:window-x="-3"
     inkscape:window-y="-3"
     inkscape:window-maximized="1"
     showguides="true"
     inkscape:guide-bbox="true"
     units="mm"
     fit-margin-top="0"
     fit-margin-left="0"
     fit-margin-right="0"
     fit-margin-bottom="0" />
  <metadata
     id="metadata4512">
    <rdf:RDF>
      <cc:Work
         rdf:about="">
        <dc:format>image/svg+xml</dc:format>
        <dc:type
           rdf:resource="http://purl.org/dc/dcmitype/StillImage" />
        <dc:title></dc:title>
      </cc:Work>
    </rdf:RDF>
  </metadata>
  <g
     inkscape:label="Layer 1"
     inkscape:groupmode="layer"
     id="layer1"
     transform="translate(653.51475,-782.82526)">
    <circle
       r="297.84821"
       cy="-80.946716"
       cx="1349.939"
       id="path9131"
       style="fill:url(#radialGradient9147);fill-opacity:1;stroke:#000000;stroke-width:0.39330709;stroke-miterlimit:4;stroke-dasharray:none;stroke-opacity:1"
       transform="matrix(0,1,-1,0,0,0)" />
    <path
       inkscape:connector-curvature="0"
       sodipodi:nodetypes="cc"
       id="path5312"
       d="m -185.2451,1582.8457 -435.8987,0"
       style="fill:none;stroke:#000000;stroke-width:3.54330516;stroke-linecap:square;stroke-linejoin:miter;stroke-miterlimit:4;stroke-dasharray:none;stroke-opacity:1" />
    <ellipse
       cy="-82.082825"
       cx="1349.9388"
       id="path3788"
       style="fill:url(#radialGradient9017);fill-opacity:1;stroke:none"
       rx="297.54498"
       ry="298.68109"
       transform="matrix(0,1,-1,0,0,0)"
       inkscape:export-xdpi="90"
       inkscape:export-ydpi="90" />
    <rect
       style="fill:#ffffff;fill-opacity:1;stroke:#000000;stroke-width:0.92522764;stroke-opacity:1"
       id="rect3798"
       width="35.507843"
       height="242.14778"
       x="1314.5529"
       y="174.17702"
       transform="matrix(0,1,-1,0,0,0)" />
    <path
       inkscape:connector-curvature="0"
       sodipodi:nodetypes="cc"
       id="path3933"
       d="m -150.469,942.58962 0,370.86618"
       style="fill:none;stroke:#000000;stroke-width:1.77165353;stroke-linecap:square;stroke-linejoin:miter;stroke-miterlimit:4;stroke-dasharray:5.3149606, 5.3149606;stroke-dashoffset:0;stroke-opacity:1" />
    <path
       style="fill:none;stroke:#000000;stroke-width:1.77165353;stroke-linecap:square;stroke-linejoin:miter;stroke-miterlimit:4;stroke-dasharray:5.3149606, 5.3149606;stroke-dashoffset:0;stroke-opacity:1"
       d="m 81.6237,814.37714 0,533.04236"
       id="path3935"
       sodipodi:nodetypes="cc"
       inkscape:connector-curvature="0" />
    <path
       style="fill:none;stroke:#000000;stroke-width:1.77165353;stroke-linecap:square;stroke-linejoin:miter;stroke-miterlimit:4;stroke-dasharray:none;stroke-opacity:1;marker-start:url(#Arrow1Mend);marker-mid:none;marker-end:url(#Arrow1Mstart)"
       d="m 84.7009,960.64063 -235.4396,-2e-5"
       id="path3937"
       sodipodi:nodetypes="cc"
       inkscape:connector-curvature="0" />
    <text
       xml:space="preserve"
       style="font-style:normal;font-weight:normal;font-size:32px;line-height:125%;font-family:Sans;letter-spacing:0px;word-spacing:0px;fill:#000000;fill-opacity:1;stroke:none"
       x="-133.0954"
       y="941.95221"
       id="text6265"
       sodipodi:linespacing="125%"><tspan
         sodipodi:role="line"
         id="tspan6267"
         x="-133.0954"
         y="941.95221"
         style="font-size:24px">LP<tspan
   style="font-size:24px;baseline-shift:super"
   id="tspan6279">1</tspan><tspan
   style="font-size:24px;baseline-shift:sub"
   id="tspan6277">pos</tspan>=75 mm</tspan></text>
    <path
       style="fill:none;stroke:#000000;stroke-width:1.77165353;stroke-linecap:square;stroke-linejoin:miter;stroke-miterlimit:4;stroke-dasharray:5.3149606, 5.3149606;stroke-dashoffset:0;stroke-opacity:1"
       d="m -272.1305,796.59584 0,516.95676"
       id="path6269"
       sodipodi:nodetypes="cc"
       inkscape:connector-curvature="0" />
    <path
       inkscape:connector-curvature="0"
       sodipodi:nodetypes="cc"
       id="path6271"
       d="m 80.9575,898.87403 -300.0138,-2e-5"
       style="fill:none;stroke:#000000;stroke-width:1.77165353;stroke-linecap:square;stroke-linejoin:miter;stroke-miterlimit:4;stroke-dasharray:none;stroke-opacity:1;marker-start:url(#Arrow1Mend);marker-mid:none;marker-end:url(#Arrow1Mstart)" />
    <path
       style="fill:none;stroke:#000000;stroke-width:1.77165353;stroke-linecap:square;stroke-linejoin:miter;stroke-miterlimit:4;stroke-dasharray:none;stroke-opacity:1;marker-start:url(#Arrow1Mend);marker-mid:none;marker-end:url(#Arrow1Mstart)"
       d="m 80.9575,816.51857 -351.4859,-2e-5"
       id="path6273"
       sodipodi:nodetypes="cc"
       inkscape:connector-curvature="0" />
    <path
       style="fill:none;stroke:#000000;stroke-width:1.77165353;stroke-linecap:square;stroke-linejoin:miter;stroke-miterlimit:4;stroke-dasharray:5.3149606, 5.3149606;stroke-dashoffset:0;stroke-opacity:1"
       d="m -219.7225,874.27202 0,437.91088"
       id="path6275"
       sodipodi:nodetypes="cc"
       inkscape:connector-curvature="0" />
    <text
       sodipodi:linespacing="125%"
       id="text6289"
       y="878.3139"
       x="-132.15948"
       style="font-style:normal;font-weight:normal;font-size:32px;line-height:125%;font-family:Sans;letter-spacing:0px;word-spacing:0px;fill:#000000;fill-opacity:1;stroke:none"
       xml:space="preserve"><tspan
         style="font-size:24px"
         y="878.3139"
         x="-132.15948"
         id="tspan6291"
         sodipodi:role="line">r<tspan
   style="font-size:65.00091553%;baseline-shift:sub"
   id="tspan6297">a</tspan>=85 mm</tspan></text>
    <text
       xml:space="preserve"
       style="font-style:normal;font-weight:normal;font-size:32px;line-height:125%;font-family:Sans;letter-spacing:0px;word-spacing:0px;fill:#000000;fill-opacity:1;stroke:none"
       x="-129.35187"
       y="800.63776"
       id="text6299"
       sodipodi:linespacing="125%"><tspan
         sodipodi:role="line"
         id="tspan6301"
         x="-129.35187"
         y="800.63776"
         style="font-size:24px">r<tspan
   id="tspan6303"
   style="font-size:65.00091553%;baseline-shift:sub">0</tspan>=100 mm</tspan></text>
    <text
       xml:space="preserve"
       style="font-style:normal;font-weight:normal;font-size:32px;line-height:125%;font-family:Sans;letter-spacing:0px;word-spacing:0px;fill:#000000;fill-opacity:1;stroke:none"
       x="430.79666"
       y="1475.693"
       id="text6305"
       sodipodi:linespacing="125%"><tspan
         sodipodi:role="line"
         id="tspan6307"
         x="430.79666"
         y="1475.693">HFS</tspan></text>
    <text
       sodipodi:linespacing="125%"
       id="text6309"
       y="1480.6891"
       x="-319.45474"
       style="font-style:normal;font-weight:normal;font-size:32px;line-height:125%;font-family:Sans;letter-spacing:0px;word-spacing:0px;fill:#000000;fill-opacity:1;stroke:none"
       xml:space="preserve"><tspan
         y="1480.6891"
         x="-319.45474"
         id="tspan6311"
         sodipodi:role="line">LFS</tspan></text>
    <g
       transform="matrix(-1,0,0,-1,-300.3509,1469.5397)"
       style="display:inline"
       id="g2402">
      <path
         inkscape:connector-curvature="0"
         sodipodi:nodetypes="cc"
         id="path1315"
         d="m 203.33855,109.30514 0,56.69292"
         style="fill:none;stroke:#000000;stroke-width:3.54330707;stroke-linecap:square;stroke-linejoin:miter;stroke-miterlimit:4;stroke-dasharray:none;stroke-opacity:1" />
      <path
         inkscape:connector-curvature="0"
         sodipodi:nodetypes="cc"
         id="path1317"
         d="m 212.1968,123.47838 0,28.34646"
         style="fill:none;stroke:#000000;stroke-width:7.08661461;stroke-linecap:square;stroke-linejoin:miter;stroke-miterlimit:4;stroke-dasharray:none;stroke-opacity:1" />
      <path
         inkscape:connector-curvature="0"
         sodipodi:nodetypes="cc"
         id="path2220"
         d="m 190.93697,137.6516 14.17324,0"
         style="fill:none;stroke:#000000;stroke-width:3.54330587;stroke-linecap:butt;stroke-linejoin:miter;stroke-miterlimit:4;stroke-dasharray:none;stroke-opacity:1" />
      <path
         inkscape:connector-curvature="0"
         sodipodi:nodetypes="cc"
         id="path2222"
         d="m 212.1968,137.6516 14.17324,0"
         style="fill:none;stroke:#000000;stroke-width:3.54330802;stroke-linecap:square;stroke-linejoin:miter;stroke-miterlimit:4;stroke-dasharray:none;stroke-opacity:1" />
      <g
         transform="matrix(2,0,0,2,-258.79112,-56.482983)"
         id="g3965">
        <path
           inkscape:connector-curvature="0"
           sodipodi:nodetypes="cc"
           style="fill:none;stroke:#000000;stroke-width:1.00000095px;stroke-linecap:butt;stroke-linejoin:miter;stroke-opacity:1"
           d="m 224.86405,82.89405 0,7.086614"
           id="path3967" />
        <path
           inkscape:connector-curvature="0"
           sodipodi:nodetypes="cc"
           style="fill:none;stroke:#000000;stroke-width:1.00000095px;stroke-linecap:butt;stroke-linejoin:miter;stroke-opacity:1"
           d="m 228.40735,86.437357 -7.08661,0"
           id="path3969" />
      </g>
    </g>
    <path
       style="fill:none;stroke:#000000;stroke-width:3.54330516;stroke-linecap:square;stroke-linejoin:miter;stroke-miterlimit:4;stroke-dasharray:none;stroke-opacity:1"
       d="m -190.43461,1331.705 -299.70129,0"
       id="path7882"
       sodipodi:nodetypes="cc"
       inkscape:connector-curvature="0" />
    <g
       style="display:inline"
       id="g2417-8"
       transform="translate(-718.3982,1038.3363)">
      <path
         inkscape:connector-curvature="0"
         sodipodi:nodetypes="cc"
         id="path5036-5"
         d="m 98.810987,293.55712 14.173223,0"
         style="fill:none;stroke:#000000;stroke-width:3.5439992;stroke-linecap:square;stroke-linejoin:miter;stroke-miterlimit:4;stroke-dasharray:none;stroke-opacity:1" />
      <path
         inkscape:connector-curvature="0"
         sodipodi:nodetypes="cc"
         id="path5038-3"
         d="m 148.41729,293.55712 40.55639,2e-5"
         style="fill:none;stroke:#000000;stroke-width:3.54330516;stroke-linecap:square;stroke-linejoin:miter;stroke-miterlimit:4;stroke-dasharray:none;stroke-opacity:1" />
      <rect
         y="286.47049"
         x="112.98426"
         height="14.173222"
         width="35.433048"
         id="rect5044-7"
         style="color:#000000;display:inline;overflow:visible;visibility:visible;fill:none;stroke:#000000;stroke-width:3.54330707;stroke-linecap:square;stroke-linejoin:round;stroke-miterlimit:4;stroke-dasharray:none;stroke-dashoffset:0;stroke-opacity:1;marker:none" />
    </g>
    <path
       inkscape:connector-curvature="0"
       sodipodi:nodetypes="cc"
       id="path7913"
       d="m -532.6528,1349.6423 47.4774,-34.1162"
       style="fill:none;stroke:#000000;stroke-width:3.54330516;stroke-linecap:square;stroke-linejoin:miter;stroke-miterlimit:4;stroke-dasharray:none;stroke-opacity:1;marker-end:url(#Arrow1Send)" />
    <text
       sodipodi:linespacing="125%"
       id="text8675"
       y="1361.0853"
       x="-449.49976"
       style="font-style:normal;font-weight:normal;font-size:32px;line-height:125%;font-family:Sans;text-align:center;letter-spacing:0px;word-spacing:0px;text-anchor:middle;fill:#000000;fill-opacity:1;stroke:none"
       xml:space="preserve"><tspan
         style="font-size:24px;text-align:center;text-anchor:middle"
         y="1361.0853"
         x="-449.49976"
         id="tspan8677"
         sodipodi:role="line">U<tspan
   style="font-size:65.00091553%;text-align:center;baseline-shift:sub;text-anchor:middle"
   id="tspan8685">bias</tspan></tspan><tspan
         style="font-size:24px;text-align:center;text-anchor:middle"
         y="1391.0853"
         x="-449.49976"
         sodipodi:role="line"
         id="tspan8687">-100 .. 100 V</tspan></text>
    <text
       xml:space="preserve"
       style="font-style:normal;font-weight:normal;font-size:32px;line-height:125%;font-family:Sans;letter-spacing:0px;word-spacing:0px;fill:#000000;fill-opacity:1;stroke:none"
       x="-647.53265"
       y="1304.2745"
       id="text8681"
       sodipodi:linespacing="125%"><tspan
         sodipodi:role="line"
         id="tspan8683"
         x="-647.53265"
         y="1304.2745"
         style="font-size:24px">R=200 Ω</tspan></text>
    <g
       id="g8719"
       style="display:inline"
       transform="matrix(0,1,-1,0,-435.7233,1391.9209)">
      <path
         style="display:inline;fill:none;stroke:#000000;stroke-width:3.54330707;stroke-linecap:square;stroke-linejoin:miter;stroke-miterlimit:4;stroke-dasharray:none;stroke-opacity:1"
         d="m 212.1968,201.43114 -42.51967,0"
         id="path8721"
         sodipodi:nodetypes="cc"
         inkscape:connector-curvature="0" />
      <path
         style="display:inline;fill:none;stroke:#000000;stroke-width:3.54330587;stroke-linecap:butt;stroke-linejoin:miter;stroke-miterlimit:4;stroke-dasharray:none;stroke-opacity:1"
         d="m 190.93697,187.2579 0,14.17324"
         id="path8723"
         sodipodi:nodetypes="cc"
         inkscape:connector-curvature="0" />
      <path
         style="display:inline;fill:none;stroke:#000000;stroke-width:3.54330707;stroke-linecap:square;stroke-linejoin:miter;stroke-miterlimit:4;stroke-dasharray:none;stroke-opacity:1"
         d="m 205.11019,208.51774 -28.34646,0"
         id="path8725"
         sodipodi:nodetypes="cc"
         inkscape:connector-curvature="0" />
      <path
         style="display:inline;fill:none;stroke:#000000;stroke-width:3.54330707;stroke-linecap:square;stroke-linejoin:miter;stroke-miterlimit:4;stroke-dasharray:none;stroke-opacity:1"
         d="m 198.02357,215.60436 -14.17322,0"
         id="path8727"
         sodipodi:nodetypes="cc"
         inkscape:connector-curvature="0" />
    </g>
    <path
       style="fill:none;stroke:#000000;stroke-width:3.54330516;stroke-linecap:square;stroke-linejoin:miter;stroke-miterlimit:4;stroke-dasharray:none;stroke-opacity:1"
       d="m -550.7563,1333.2485 0,55.1514"
       id="path5319"
       sodipodi:nodetypes="cc"
       inkscape:connector-curvature="0" />
    <g
       id="g8767"
       transform="matrix(-0.79631227,0,0,-0.79631227,-511.97179,2731.6332)">
      <ellipse
         transform="matrix(2,0,0,2.666666,-749.66783,1417.6752)"
         id="path6422"
         style="color:#000000;display:inline;overflow:visible;visibility:visible;fill:none;stroke:#000000;stroke-width:1.92675233;stroke-linecap:square;stroke-linejoin:miter;stroke-miterlimit:4;stroke-dasharray:none;stroke-dashoffset:0;stroke-opacity:1;marker:none"
         cx="421.65353"
         cy="100.86611"
         rx="14.173228"
         ry="10.629921" />
      <path
         inkscape:connector-curvature="0"
         sodipodi:nodetypes="cc"
         id="path6424"
         d="m 121.98567,1686.6513 15.89824,0"
         style="display:inline;fill:none;stroke:#000000;stroke-width:4.44964743;stroke-linecap:square;stroke-linejoin:miter;stroke-miterlimit:4;stroke-dasharray:none;stroke-opacity:1" />
      <path
         inkscape:connector-curvature="0"
         sodipodi:nodetypes="cc"
         id="path6426"
         d="m 50.099459,1686.6513 15.193291,0"
         style="display:inline;fill:none;stroke:#000000;stroke-width:4.44964743;stroke-linecap:square;stroke-linejoin:miter;stroke-miterlimit:4;stroke-dasharray:none;stroke-opacity:1" />
    </g>
    <text
       sodipodi:linespacing="125%"
       id="text8774"
       y="1394.7382"
       x="-597.05542"
       style="font-style:normal;font-weight:normal;font-size:25.48199272px;line-height:125%;font-family:Sans;letter-spacing:0px;word-spacing:0px;fill:#000000;fill-opacity:1;stroke:none"
       xml:space="preserve"><tspan
         style="font-size:19.11149406px"
         y="1394.7382"
         x="-597.05542"
         id="tspan8776"
         sodipodi:role="line">U<tspan
   style="font-size:12.42264652px;baseline-shift:sub"
   id="tspan8778">R</tspan></tspan></text>
    <g
       id="g8853"
       style="display:inline"
       transform="matrix(0,1,-1,0,-436.13874,1171.0899)">
      <path
         style="display:inline;fill:none;stroke:#000000;stroke-width:3.54330707;stroke-linecap:square;stroke-linejoin:miter;stroke-miterlimit:4;stroke-dasharray:none;stroke-opacity:1"
         d="m 212.1968,201.43114 -42.51967,0"
         id="path8855"
         sodipodi:nodetypes="cc"
         inkscape:connector-curvature="0" />
      <path
         style="display:inline;fill:none;stroke:#000000;stroke-width:3.54330587;stroke-linecap:butt;stroke-linejoin:miter;stroke-miterlimit:4;stroke-dasharray:none;stroke-opacity:1"
         d="m 190.93697,187.2579 0,14.17324"
         id="path8857"
         sodipodi:nodetypes="cc"
         inkscape:connector-curvature="0" />
      <path
         style="display:inline;fill:none;stroke:#000000;stroke-width:3.54330707;stroke-linecap:square;stroke-linejoin:miter;stroke-miterlimit:4;stroke-dasharray:none;stroke-opacity:1"
         d="m 205.11019,208.51774 -28.34646,0"
         id="path8859"
         sodipodi:nodetypes="cc"
         inkscape:connector-curvature="0" />
      <path
         style="display:inline;fill:none;stroke:#000000;stroke-width:3.54330707;stroke-linecap:square;stroke-linejoin:miter;stroke-miterlimit:4;stroke-dasharray:none;stroke-opacity:1"
         d="m 198.02357,215.60436 -14.17322,0"
         id="path8861"
         sodipodi:nodetypes="cc"
         inkscape:connector-curvature="0" />
    </g>
    <path
       inkscape:connector-curvature="0"
       sodipodi:nodetypes="cc"
       id="path8891"
       d="m -622.6084,1331.8451 0,55.4413"
       style="fill:none;stroke:#000000;stroke-width:3.54330516;stroke-linecap:square;stroke-linejoin:miter;stroke-miterlimit:4;stroke-dasharray:none;stroke-opacity:1" />
    <circle
       r="351.83072"
       cy="1149.1163"
       cx="713.03522"
       style="fill:none;stroke:#000000;stroke-width:5.00000048;stroke-miterlimit:4;stroke-dasharray:none;stroke-opacity:1"
       id="path4528"
       transform="matrix(0.87974505,0.47544574,-0.47544574,0.87974505,0,0)" />
    <text
       xml:space="preserve"
       style="font-style:normal;font-weight:normal;font-size:32px;line-height:125%;font-family:Sans;letter-spacing:0px;word-spacing:0px;fill:#000000;fill-opacity:1;stroke:none"
       id="text9170"
       sodipodi:linespacing="125%"
       x="1355.1"
       y="-1140.0771"
       transform="matrix(0,-1,1,0,-1261.3299,1421.242)"><textPath
         xlink:href="#path4528"
         id="textPath9199"><tspan
   id="tspan9172">chamber</tspan></textPath></text>
    <text
       sodipodi:linespacing="125%"
       id="text9202"
       style="font-style:normal;font-weight:normal;font-size:32px;line-height:125%;font-family:Sans;letter-spacing:0px;word-spacing:0px;fill:#000000;fill-opacity:1;stroke:none"
       xml:space="preserve"
       x="-33.510014"
       y="31.74633"
       transform="matrix(-1,0,0,-1,190.81334,2737.3517)"><textPath
         id="textPath9204"
         xlink:href="#path4528">plasma radius</textPath></text>
    <text
       xml:space="preserve"
       style="font-style:normal;font-weight:normal;font-size:32px;line-height:125%;font-family:Sans;text-align:center;letter-spacing:0px;word-spacing:0px;text-anchor:middle;fill:#000000;fill-opacity:1;stroke:none"
       x="-343.14777"
       y="1265.9545"
       id="text9208"
       sodipodi:linespacing="125%"><tspan
         sodipodi:role="line"
         id="tspan9210"
         x="-338.05402"
         y="1265.9545">ball pen </tspan><tspan
         sodipodi:role="line"
         x="-343.14777"
         y="1305.9545"
         id="tspan4006">probe</tspan></text>
    <g
       id="g4027"
       transform="translate(-41.391556,0.2670423)">
      <rect
         y="1313.5748"
         x="-143.83476"
         height="4.373178"
         width="35.102219"
         id="rect3998"
         style="fill:#000000;fill-rule:evenodd;stroke:#000000;stroke-width:0.77006418px;stroke-linecap:butt;stroke-linejoin:miter;stroke-opacity:1" />
      <rect
         style="fill:#000000;fill-rule:evenodd;stroke:#000000;stroke-width:0.77006418px;stroke-linecap:butt;stroke-linejoin:miter;stroke-opacity:1"
         id="rect4000"
         width="35.102219"
         height="4.373178"
         x="-142.79895"
         y="1345.5122" />
      <rect
         transform="matrix(0.69816423,0.71593764,-0.71593764,0.69816423,0,0)"
         y="1013.7375"
         x="847.35986"
         height="24.859451"
         width="24.859451"
         id="rect4002"
         style="fill:#000000" />
      <rect
         y="1313.1718"
         x="-199.99879"
         height="36.943905"
         width="65.08342"
         id="rect4004"
         style="fill:#000000" />
    </g>
    <text
       xml:space="preserve"
       style="font-style:normal;font-weight:normal;font-size:32px;line-height:125%;font-family:Sans;letter-spacing:0px;word-spacing:0px;fill:#000000;fill-opacity:1;stroke:none"
       x="-565.66107"
       y="1453.4614"
       id="text4021"
       sodipodi:linespacing="125%"><tspan
         sodipodi:role="line"
         id="tspan4023"
         x="-565.66107"
         y="1453.4614"
         style="font-size:12.5px">(Papouch_ST_12)</tspan><tspan
         id="tspan4025"
         sodipodi:role="line"
         x="-565.66107"
         y="1469.0864"
         style="font-size:24px" /></text>
    <text
       xml:space="preserve"
       style="font-style:normal;font-weight:normal;font-size:32px;line-height:125%;font-family:Sans;letter-spacing:0px;word-spacing:0px;fill:#000000;fill-opacity:1;stroke:none"
       x="-538.41693"
       y="1437.4939"
       id="text3562"
       sodipodi:linespacing="125%"><tspan
         sodipodi:role="line"
         id="tspan3564"
         x="-538.41693"
         y="1437.4939"
         style="font-size:24px">DAS</tspan><tspan
         id="tspan3566"
         sodipodi:role="line"
         x="-538.41693"
         y="1467.4939"
         style="font-size:24px" /></text>
    <path
       style="fill:none;stroke:#000000;stroke-width:3.54330516;stroke-linecap:square;stroke-linejoin:miter;stroke-miterlimit:4;stroke-dasharray:none;stroke-opacity:1;marker-end:url(#Arrow1Send)"
       d="m -563.6205,1405.7624 19.53094,16.7441"
       id="path3568"
       sodipodi:nodetypes="cc"
       inkscape:connector-curvature="0" />
    <path
       style="fill:none;stroke:#000000;stroke-width:1.77165353;stroke-linecap:square;stroke-linejoin:miter;stroke-miterlimit:4;stroke-dasharray:5.3149606, 5.3149606;stroke-dashoffset:0;stroke-opacity:1"
       d="m -159.89511,1332.184 0,50.7281"
       id="path3437"
       sodipodi:nodetypes="cc"
       inkscape:connector-curvature="0" />
    <path
       inkscape:connector-curvature="0"
       sodipodi:nodetypes="cc"
       id="path3439"
       d="m -148.87299,1381.0854 -13.08688,0"
       style="fill:none;stroke:#000000;stroke-width:1.77165353;stroke-linecap:square;stroke-linejoin:miter;stroke-miterlimit:4;stroke-dasharray:none;stroke-opacity:1;marker-start:url(#Arrow1Mend);marker-mid:none;marker-end:url(#Arrow1Mstart)" />
    <text
       sodipodi:linespacing="125%"
       id="text3441"
       y="1411.4302"
       x="-201.41798"
       style="font-style:normal;font-weight:normal;font-size:32px;line-height:125%;font-family:Sans;letter-spacing:0px;word-spacing:0px;fill:#000000;fill-opacity:1;stroke:none"
       xml:space="preserve"><tspan
         style="font-size:24px"
         y="1411.4302"
         x="-201.41798"
         id="tspan3443"
         sodipodi:role="line">h=0.5 mm</tspan></text>
    <path
       inkscape:connector-curvature="0"
       sodipodi:nodetypes="cc"
       id="path3449"
       d="m -148.92464,1346.0978 0,34.9413"
       style="fill:none;stroke:#000000;stroke-width:1.77165353;stroke-linecap:square;stroke-linejoin:miter;stroke-miterlimit:4;stroke-dasharray:5.3149606, 5.3149606;stroke-dashoffset:0;stroke-opacity:1" />
  </g>
</svg>
