<?xml version="1.0" encoding="UTF-8" standalone="no"?>
<!-- Created with Inkscape (http://www.inkscape.org/) -->

<svg
   xmlns:dc="http://purl.org/dc/elements/1.1/"
   xmlns:cc="http://creativecommons.org/ns#"
   xmlns:rdf="http://www.w3.org/1999/02/22-rdf-syntax-ns#"
   xmlns:svg="http://www.w3.org/2000/svg"
   xmlns="http://www.w3.org/2000/svg"
   xmlns:xlink="http://www.w3.org/1999/xlink"
   xmlns:sodipodi="http://sodipodi.sourceforge.net/DTD/sodipodi-0.dtd"
   xmlns:inkscape="http://www.inkscape.org/namespaces/inkscape"
   width="921.44434"
   height="1088.1017"
   id="svg4507"
   version="1.1"
   inkscape:version="0.48.4 r9939"
   sodipodi:docname="expsetup.svg"
   inkscape:export-filename="/home/svoboda/mnt/buon/GW/Experiments/EdgePlasmaPhysics/ParticleFlux/RakeProbe/1114ShotToShotMeasurement/Sessions/1114Intro/expsetup.png"
   inkscape:export-xdpi="200.02724"
   inkscape:export-ydpi="200.02724">
  <defs
     id="defs4509">
    <linearGradient
       inkscape:collect="always"
       id="linearGradient9141">
      <stop
         style="stop-color:#ff0000;stop-opacity:1;"
         offset="0"
         id="stop9143" />
      <stop
         style="stop-color:#ff0000;stop-opacity:0;"
         offset="1"
         id="stop9145" />
    </linearGradient>
    <marker
       inkscape:stockid="Arrow1Mstart"
       orient="auto"
       refY="0"
       refX="0"
       id="Arrow1Mstart"
       style="overflow:visible">
      <path
         id="path3949"
         d="M 0,0 5,-5 -12.5,0 5,5 0,0 z"
         style="fill-rule:evenodd;stroke:#000000;stroke-width:1pt"
         transform="matrix(0.4,0,0,0.4,4,0)"
         inkscape:connector-curvature="0" />
    </marker>
    <marker
       inkscape:stockid="Arrow1Send"
       orient="auto"
       refY="0"
       refX="0"
       id="Arrow1Send"
       style="overflow:visible">
      <path
         id="path3958"
         d="M 0,0 5,-5 -12.5,0 5,5 0,0 z"
         style="fill-rule:evenodd;stroke:#000000;stroke-width:1pt"
         transform="matrix(-0.2,0,0,-0.2,-1.2,0)"
         inkscape:connector-curvature="0" />
    </marker>
    <marker
       inkscape:stockid="Arrow1Mend"
       orient="auto"
       refY="0"
       refX="0"
       id="Arrow1Mend"
       style="overflow:visible">
      <path
         id="path3952"
         d="M 0,0 5,-5 -12.5,0 5,5 0,0 z"
         style="fill-rule:evenodd;stroke:#000000;stroke-width:1pt"
         transform="matrix(-0.4,0,0,-0.4,-4,0)"
         inkscape:connector-curvature="0" />
    </marker>
    <marker
       inkscape:stockid="Arrow2Mend"
       orient="auto"
       refY="0"
       refX="0"
       id="Arrow2Mend"
       style="overflow:visible">
      <path
         id="path3970"
         style="fill-rule:evenodd;stroke-width:0.625;stroke-linejoin:round"
         d="M 8.7185878,4.0337352 -2.2072895,0.01601326 8.7185884,-4.0017078 c -1.7454984,2.3720609 -1.7354408,5.6174519 -6e-7,8.035443 z"
         transform="scale(-0.6,-0.6)"
         inkscape:connector-curvature="0" />
    </marker>
    <marker
       inkscape:stockid="Arrow1Lend"
       orient="auto"
       refY="0"
       refX="0"
       id="Arrow1Lend"
       style="overflow:visible">
      <path
         id="path3946"
         d="M 0,0 5,-5 -12.5,0 5,5 0,0 z"
         style="fill-rule:evenodd;stroke:#000000;stroke-width:1pt"
         transform="matrix(-0.8,0,0,-0.8,-10,0)"
         inkscape:connector-curvature="0" />
    </marker>
    <linearGradient
       inkscape:collect="always"
       id="linearGradient3790">
      <stop
         style="stop-color:#ff0000;stop-opacity:1;"
         offset="0"
         id="stop3792" />
      <stop
         style="stop-color:#ff0000;stop-opacity:0;"
         offset="1"
         id="stop3794" />
    </linearGradient>
    <radialGradient
       inkscape:collect="always"
       xlink:href="#linearGradient3790"
       id="radialGradient3796"
       cx="309.10669"
       cy="487.68692"
       fx="309.10669"
       fy="487.68692"
       r="115.17954"
       gradientUnits="userSpaceOnUse" />
    <radialGradient
       inkscape:collect="always"
       xlink:href="#linearGradient3790"
       id="radialGradient9017"
       gradientUnits="userSpaceOnUse"
       cx="309.10669"
       cy="487.68692"
       fx="309.10669"
       fy="487.68692"
       r="115.17954"
       gradientTransform="translate(-220.16185,269.0694)" />
    <radialGradient
       inkscape:collect="always"
       xlink:href="#linearGradient9141"
       id="radialGradient9147"
       cx="309.10669"
       cy="487.68692"
       fx="309.10669"
       fy="487.68692"
       r="116.14631"
       gradientUnits="userSpaceOnUse" />
  </defs>
  <sodipodi:namedview
     id="base"
     pagecolor="#ffffff"
     bordercolor="#666666"
     borderopacity="1.0"
     inkscape:pageopacity="0.0"
     inkscape:pageshadow="2"
     inkscape:zoom="0.62865935"
     inkscape:cx="423.38395"
     inkscape:cy="589.26478"
     inkscape:document-units="mm"
     inkscape:current-layer="layer1"
     showgrid="false"
     inkscape:window-width="1400"
     inkscape:window-height="995"
     inkscape:window-x="-2"
     inkscape:window-y="-3"
     inkscape:window-maximized="1"
     showguides="true"
     inkscape:guide-bbox="true"
     units="mm"
     fit-margin-top="0"
     fit-margin-left="0"
     fit-margin-right="0"
     fit-margin-bottom="0" />
  <metadata
     id="metadata4512">
    <rdf:RDF>
      <cc:Work
         rdf:about="">
        <dc:format>image/svg+xml</dc:format>
        <dc:type
           rdf:resource="http://purl.org/dc/dcmitype/StillImage" />
        <dc:title></dc:title>
      </cc:Work>
    </rdf:RDF>
  </metadata>
  <g
     inkscape:label="Layer 1"
     inkscape:groupmode="layer"
     id="layer1"
     transform="translate(568.74731,-697.74496)">
    <path
       inkscape:connector-curvature="0"
       sodipodi:nodetypes="cc"
       id="path5312"
       d="m 231.27314,1318.2675 -2e-5,435.8987"
       style="fill:none;stroke:#000000;stroke-width:3.54330516;stroke-linecap:square;stroke-linejoin:miter;stroke-miterlimit:4;stroke-opacity:1;stroke-dasharray:none" />
    <path
       transform="matrix(2.5833146,0,0,2.5931784,-800.15352,-213.71965)"
       d="m 424.28623,487.68692 a 115.17954,115.17954 0 1 1 -230.35908,0 115.17954,115.17954 0 1 1 230.35908,0 z"
       sodipodi:ry="115.17954"
       sodipodi:rx="115.17954"
       sodipodi:cy="487.68692"
       sodipodi:cx="309.10669"
       id="path3788"
       style="fill:url(#radialGradient9017);fill-opacity:1;stroke:none"
       sodipodi:type="arc" />
    <g
       id="g3907"
       transform="translate(-5.1334418,211.50381)">
      <rect
         y="1054.3414"
         x="-31.848948"
         height="283.46457"
         width="35.433071"
         id="rect3798"
         style="fill:#ffffff;fill-opacity:1;stroke:#000000;stroke-opacity:1" />
      <g
         id="g3885">
        <g
           id="g3826">
          <path
             inkscape:tile-y0="1071.9647"
             inkscape:tile-x0="5.305915"
             inkscape:tile-h="0"
             inkscape:tile-w="6.932734"
             inkscape:tile-cy="1071.9647"
             inkscape:tile-cx="8.772282"
             inkscape:connector-curvature="0"
             sodipodi:nodetypes="cc"
             id="path3800"
             d="m 12.238649,1071.9647 -6.932734,0"
             style="fill:none;stroke:#000000;stroke-width:3.54330516;stroke-linecap:square;stroke-linejoin:miter;stroke-miterlimit:4;stroke-opacity:1;stroke-dasharray:none" />
          <path
             style="fill:none;stroke:#000000;stroke-width:3.54330516;stroke-linecap:square;stroke-linejoin:miter;stroke-miterlimit:4;stroke-opacity:1;stroke-dasharray:none"
             d="m 12.324226,1080.5932 -6.9327334,0"
             id="path3820"
             sodipodi:nodetypes="cc"
             inkscape:connector-curvature="0"
             inkscape:tile-cx="8.772282"
             inkscape:tile-cy="1071.9647"
             inkscape:tile-w="6.932734"
             inkscape:tile-h="0"
             inkscape:tile-x0="5.305915"
             inkscape:tile-y0="1071.9647" />
          <path
             style="fill:none;stroke:#000000;stroke-width:3.54330516;stroke-linecap:square;stroke-linejoin:miter;stroke-miterlimit:4;stroke-opacity:1;stroke-dasharray:none"
             d="m 12.238649,1089.746 -6.932734,0"
             id="path3822"
             sodipodi:nodetypes="cc"
             inkscape:connector-curvature="0"
             inkscape:tile-cx="8.772282"
             inkscape:tile-cy="1071.9647"
             inkscape:tile-w="6.932734"
             inkscape:tile-h="0"
             inkscape:tile-x0="5.305915"
             inkscape:tile-y0="1071.9647" />
          <path
             inkscape:tile-y0="1071.9647"
             inkscape:tile-x0="5.305915"
             inkscape:tile-h="0"
             inkscape:tile-w="6.932734"
             inkscape:tile-cy="1071.9647"
             inkscape:tile-cx="8.772282"
             inkscape:connector-curvature="0"
             sodipodi:nodetypes="cc"
             id="path3824"
             d="m 12.324226,1098.3745 -6.9327334,0"
             style="fill:none;stroke:#000000;stroke-width:3.54330516;stroke-linecap:square;stroke-linejoin:miter;stroke-miterlimit:4;stroke-opacity:1;stroke-dasharray:none" />
        </g>
        <g
           id="g3832"
           transform="translate(0.11698219,35.094658)">
          <path
             style="fill:none;stroke:#000000;stroke-width:3.54330516;stroke-linecap:square;stroke-linejoin:miter;stroke-miterlimit:4;stroke-opacity:1;stroke-dasharray:none"
             d="m 12.238649,1071.9647 -6.932734,0"
             id="path3834"
             sodipodi:nodetypes="cc"
             inkscape:connector-curvature="0"
             inkscape:tile-cx="8.772282"
             inkscape:tile-cy="1071.9647"
             inkscape:tile-w="6.932734"
             inkscape:tile-h="0"
             inkscape:tile-x0="5.305915"
             inkscape:tile-y0="1071.9647" />
          <path
             inkscape:tile-y0="1071.9647"
             inkscape:tile-x0="5.305915"
             inkscape:tile-h="0"
             inkscape:tile-w="6.932734"
             inkscape:tile-cy="1071.9647"
             inkscape:tile-cx="8.772282"
             inkscape:connector-curvature="0"
             sodipodi:nodetypes="cc"
             id="path3836"
             d="m 12.324226,1080.5932 -6.9327334,0"
             style="fill:none;stroke:#000000;stroke-width:3.54330516;stroke-linecap:square;stroke-linejoin:miter;stroke-miterlimit:4;stroke-opacity:1;stroke-dasharray:none" />
          <path
             inkscape:tile-y0="1071.9647"
             inkscape:tile-x0="5.305915"
             inkscape:tile-h="0"
             inkscape:tile-w="6.932734"
             inkscape:tile-cy="1071.9647"
             inkscape:tile-cx="8.772282"
             inkscape:connector-curvature="0"
             sodipodi:nodetypes="cc"
             id="path3838"
             d="m 12.238649,1089.746 -6.932734,0"
             style="fill:none;stroke:#000000;stroke-width:3.54330516;stroke-linecap:square;stroke-linejoin:miter;stroke-miterlimit:4;stroke-opacity:1;stroke-dasharray:none" />
          <path
             style="fill:none;stroke:#000000;stroke-width:3.54330516;stroke-linecap:square;stroke-linejoin:miter;stroke-miterlimit:4;stroke-opacity:1;stroke-dasharray:none"
             d="m 12.324226,1098.3745 -6.9327334,0"
             id="path3840"
             sodipodi:nodetypes="cc"
             inkscape:connector-curvature="0"
             inkscape:tile-cx="8.772282"
             inkscape:tile-cy="1071.9647"
             inkscape:tile-w="6.932734"
             inkscape:tile-h="0"
             inkscape:tile-x0="5.305915"
             inkscape:tile-y0="1071.9647" />
        </g>
        <g
           id="g3842"
           transform="translate(0.23396439,70.657245)">
          <path
             style="fill:none;stroke:#000000;stroke-width:3.54330516;stroke-linecap:square;stroke-linejoin:miter;stroke-miterlimit:4;stroke-opacity:1;stroke-dasharray:none"
             d="m 12.238649,1071.9647 -6.932734,0"
             id="path3844"
             sodipodi:nodetypes="cc"
             inkscape:connector-curvature="0"
             inkscape:tile-cx="8.772282"
             inkscape:tile-cy="1071.9647"
             inkscape:tile-w="6.932734"
             inkscape:tile-h="0"
             inkscape:tile-x0="5.305915"
             inkscape:tile-y0="1071.9647" />
          <path
             inkscape:tile-y0="1071.9647"
             inkscape:tile-x0="5.305915"
             inkscape:tile-h="0"
             inkscape:tile-w="6.932734"
             inkscape:tile-cy="1071.9647"
             inkscape:tile-cx="8.772282"
             inkscape:connector-curvature="0"
             sodipodi:nodetypes="cc"
             id="path3846"
             d="m 12.324226,1080.5932 -6.9327334,0"
             style="fill:none;stroke:#000000;stroke-width:3.54330516;stroke-linecap:square;stroke-linejoin:miter;stroke-miterlimit:4;stroke-opacity:1;stroke-dasharray:none" />
          <path
             inkscape:tile-y0="1071.9647"
             inkscape:tile-x0="5.305915"
             inkscape:tile-h="0"
             inkscape:tile-w="6.932734"
             inkscape:tile-cy="1071.9647"
             inkscape:tile-cx="8.772282"
             inkscape:connector-curvature="0"
             sodipodi:nodetypes="cc"
             id="path3848"
             d="m 12.238649,1089.746 -6.932734,0"
             style="fill:none;stroke:#000000;stroke-width:3.54330516;stroke-linecap:square;stroke-linejoin:miter;stroke-miterlimit:4;stroke-opacity:1;stroke-dasharray:none" />
          <path
             style="fill:none;stroke:#000000;stroke-width:3.54330516;stroke-linecap:square;stroke-linejoin:miter;stroke-miterlimit:4;stroke-opacity:1;stroke-dasharray:none"
             d="m 12.324226,1098.3745 -6.9327334,0"
             id="path3850"
             sodipodi:nodetypes="cc"
             inkscape:connector-curvature="0"
             inkscape:tile-cx="8.772282"
             inkscape:tile-cy="1071.9647"
             inkscape:tile-w="6.932734"
             inkscape:tile-h="0"
             inkscape:tile-x0="5.305915"
             inkscape:tile-y0="1071.9647" />
        </g>
        <g
           transform="translate(0.35094658,105.7519)"
           id="g3852">
          <path
             inkscape:tile-y0="1071.9647"
             inkscape:tile-x0="5.305915"
             inkscape:tile-h="0"
             inkscape:tile-w="6.932734"
             inkscape:tile-cy="1071.9647"
             inkscape:tile-cx="8.772282"
             inkscape:connector-curvature="0"
             sodipodi:nodetypes="cc"
             id="path3854"
             d="m 12.238649,1071.9647 -6.932734,0"
             style="fill:none;stroke:#000000;stroke-width:3.54330516;stroke-linecap:square;stroke-linejoin:miter;stroke-miterlimit:4;stroke-opacity:1;stroke-dasharray:none" />
          <path
             style="fill:none;stroke:#000000;stroke-width:3.54330516;stroke-linecap:square;stroke-linejoin:miter;stroke-miterlimit:4;stroke-opacity:1;stroke-dasharray:none"
             d="m 12.324226,1080.5932 -6.9327334,0"
             id="path3856"
             sodipodi:nodetypes="cc"
             inkscape:connector-curvature="0"
             inkscape:tile-cx="8.772282"
             inkscape:tile-cy="1071.9647"
             inkscape:tile-w="6.932734"
             inkscape:tile-h="0"
             inkscape:tile-x0="5.305915"
             inkscape:tile-y0="1071.9647" />
          <path
             style="fill:none;stroke:#000000;stroke-width:3.54330516;stroke-linecap:square;stroke-linejoin:miter;stroke-miterlimit:4;stroke-opacity:1;stroke-dasharray:none"
             d="m 12.238649,1089.746 -6.932734,0"
             id="path3858"
             sodipodi:nodetypes="cc"
             inkscape:connector-curvature="0"
             inkscape:tile-cx="8.772282"
             inkscape:tile-cy="1071.9647"
             inkscape:tile-w="6.932734"
             inkscape:tile-h="0"
             inkscape:tile-x0="5.305915"
             inkscape:tile-y0="1071.9647" />
          <path
             inkscape:tile-y0="1071.9647"
             inkscape:tile-x0="5.305915"
             inkscape:tile-h="0"
             inkscape:tile-w="6.932734"
             inkscape:tile-cy="1071.9647"
             inkscape:tile-cx="8.772282"
             inkscape:connector-curvature="0"
             sodipodi:nodetypes="cc"
             id="path3860"
             d="m 12.324226,1098.3745 -6.9327334,0"
             style="fill:none;stroke:#000000;stroke-width:3.54330516;stroke-linecap:square;stroke-linejoin:miter;stroke-miterlimit:4;stroke-opacity:1;stroke-dasharray:none" />
        </g>
      </g>
    </g>
    <path
       inkscape:connector-curvature="0"
       sodipodi:nodetypes="cc"
       id="path3933"
       d="m -408.98298,1283.4914 370.866229,0"
       style="fill:none;stroke:#000000;stroke-width:1.77165353;stroke-linecap:square;stroke-linejoin:miter;stroke-miterlimit:4;stroke-opacity:1;stroke-dasharray:5.3149606, 5.3149606;stroke-dashoffset:0" />
    <path
       style="fill:none;stroke:#000000;stroke-width:1.77165353;stroke-linecap:square;stroke-linejoin:miter;stroke-miterlimit:4;stroke-opacity:1;stroke-dasharray:5.3149606, 5.3149606;stroke-dashoffset:0"
       d="m -537.19546,1051.3987 533.0423629,0"
       id="path3935"
       sodipodi:nodetypes="cc"
       inkscape:connector-curvature="0" />
    <path
       style="fill:none;stroke:#000000;stroke-width:1.77165353;stroke-linecap:square;stroke-linejoin:miter;stroke-miterlimit:4;stroke-opacity:1;stroke-dasharray:none;marker-start:url(#Arrow1Mend);marker-mid:none;marker-end:url(#Arrow1Mstart)"
       d="m -390.93197,1048.3215 -2e-5,235.4396"
       id="path3937"
       sodipodi:nodetypes="cc"
       inkscape:connector-curvature="0" />
    <text
       xml:space="preserve"
       style="font-size:32px;font-style:normal;font-weight:normal;line-height:125%;letter-spacing:0px;word-spacing:0px;fill:#000000;fill-opacity:1;stroke:none;font-family:Sans"
       x="-1266.1178"
       y="-409.62036"
       id="text6265"
       sodipodi:linespacing="125%"
       transform="matrix(0,-1,1,0,0,0)"><tspan
         sodipodi:role="line"
         id="tspan6267"
         x="-1266.1178"
         y="-409.62036"
         style="font-size:24px">LP<tspan
   style="font-size:24px;baseline-shift:super"
   id="tspan6279">1</tspan><tspan
   style="font-size:24px;baseline-shift:sub"
   id="tspan6277">pos</tspan>=68 mm</tspan></text>
    <path
       style="fill:none;stroke:#000000;stroke-width:1.77165353;stroke-linecap:square;stroke-linejoin:miter;stroke-miterlimit:4;stroke-opacity:1;stroke-dasharray:5.3149606, 5.3149606;stroke-dashoffset:0"
       d="m -554.97676,1405.1529 516.956775,0"
       id="path6269"
       sodipodi:nodetypes="cc"
       inkscape:connector-curvature="0" />
    <path
       inkscape:connector-curvature="0"
       sodipodi:nodetypes="cc"
       id="path6271"
       d="m -452.69857,1052.0649 -2e-5,300.0138"
       style="fill:none;stroke:#000000;stroke-width:1.77165353;stroke-linecap:square;stroke-linejoin:miter;stroke-miterlimit:4;stroke-opacity:1;stroke-dasharray:none;marker-start:url(#Arrow1Mend);marker-mid:none;marker-end:url(#Arrow1Mstart)" />
    <path
       style="fill:none;stroke:#000000;stroke-width:1.77165353;stroke-linecap:square;stroke-linejoin:miter;stroke-miterlimit:4;stroke-opacity:1;stroke-dasharray:none;marker-start:url(#Arrow1Mend);marker-mid:none;marker-end:url(#Arrow1Mstart)"
       d="m -535.05403,1052.0649 -2e-5,351.4859"
       id="path6273"
       sodipodi:nodetypes="cc"
       inkscape:connector-curvature="0" />
    <path
       style="fill:none;stroke:#000000;stroke-width:1.77165353;stroke-linecap:square;stroke-linejoin:miter;stroke-miterlimit:4;stroke-opacity:1;stroke-dasharray:5.3149606, 5.3149606;stroke-dashoffset:0"
       d="m -477.30058,1352.7449 437.910906,0"
       id="path6275"
       sodipodi:nodetypes="cc"
       inkscape:connector-curvature="0" />
    <text
       transform="matrix(0,-1,1,0,0,0)"
       sodipodi:linespacing="125%"
       id="text6289"
       y="-473.25867"
       x="-1265.1819"
       style="font-size:32px;font-style:normal;font-weight:normal;line-height:125%;letter-spacing:0px;word-spacing:0px;fill:#000000;fill-opacity:1;stroke:none;font-family:Sans"
       xml:space="preserve"><tspan
         style="font-size:24px"
         y="-473.25867"
         x="-1265.1819"
         id="tspan6291"
         sodipodi:role="line">r<tspan
   style="font-size:65.00091553%;baseline-shift:sub"
   id="tspan6297">a</tspan>=85 mm</tspan></text>
    <text
       xml:space="preserve"
       style="font-size:32px;font-style:normal;font-weight:normal;line-height:125%;letter-spacing:0px;word-spacing:0px;fill:#000000;fill-opacity:1;stroke:none;font-family:Sans"
       x="-1262.3743"
       y="-550.93481"
       id="text6299"
       sodipodi:linespacing="125%"
       transform="matrix(0,-1,1,0,0,0)"><tspan
         sodipodi:role="line"
         id="tspan6301"
         x="-1262.3743"
         y="-550.93481"
         style="font-size:24px">r<tspan
   id="tspan6303"
   style="font-size:65.00091553%;baseline-shift:sub">0</tspan>=100 mm</tspan></text>
    <text
       xml:space="preserve"
       style="font-size:32px;font-style:normal;font-weight:normal;line-height:125%;letter-spacing:0px;word-spacing:0px;fill:#000000;fill-opacity:1;stroke:none;font-family:Sans"
       x="-280.97061"
       y="1039.6281"
       id="text6305"
       sodipodi:linespacing="125%"><tspan
         sodipodi:role="line"
         id="tspan6307"
         x="-280.97061"
         y="1039.6281">HFS</tspan></text>
    <text
       sodipodi:linespacing="125%"
       id="text6309"
       y="1041.4159"
       x="227.59439"
       style="font-size:32px;font-style:normal;font-weight:normal;line-height:125%;letter-spacing:0px;word-spacing:0px;fill:#000000;fill-opacity:1;stroke:none;font-family:Sans"
       xml:space="preserve"><tspan
         y="1041.4159"
         x="227.59439"
         id="tspan6311"
         sodipodi:role="line">LFS</tspan></text>
    <text
       sodipodi:linespacing="125%"
       id="text6313"
       y="1284.634"
       x="13.080829"
       style="font-size:32px;font-style:normal;font-weight:normal;line-height:125%;letter-spacing:0px;word-spacing:0px;fill:#000000;fill-opacity:1;stroke:none;font-family:Sans"
       xml:space="preserve"><tspan
         style="font-size:24px"
         y="1284.634"
         x="13.080829"
         id="tspan6315"
         sodipodi:role="line">LP<tspan
   style="font-size:65.00091553%;baseline-shift:sub"
   id="tspan6319">1</tspan></tspan></text>
    <text
       xml:space="preserve"
       style="font-size:32px;font-style:normal;font-weight:normal;line-height:125%;letter-spacing:0px;word-spacing:0px;fill:#000000;fill-opacity:1;stroke:none;font-family:Sans"
       x="13.080829"
       y="1430.2194"
       id="text6321"
       sodipodi:linespacing="125%"><tspan
         sodipodi:role="line"
         id="tspan6323"
         x="13.080829"
         y="1430.2194"
         style="font-size:24px">LP<tspan
   id="tspan6325"
   style="font-size:65.00091553%;baseline-shift:sub">16</tspan></tspan></text>
    <g
       transform="matrix(0,1,-1,0,117.96708,1433.3733)"
       style="display:inline"
       id="g2402">
      <path
         inkscape:connector-curvature="0"
         sodipodi:nodetypes="cc"
         id="path1315"
         d="m 203.33855,109.30514 0,56.69292"
         style="fill:none;stroke:#000000;stroke-width:3.54330707;stroke-linecap:square;stroke-linejoin:miter;stroke-miterlimit:4;stroke-opacity:1;stroke-dasharray:none" />
      <path
         inkscape:connector-curvature="0"
         sodipodi:nodetypes="cc"
         id="path1317"
         d="m 212.1968,123.47838 0,28.34646"
         style="fill:none;stroke:#000000;stroke-width:7.08661461;stroke-linecap:square;stroke-linejoin:miter;stroke-miterlimit:4;stroke-opacity:1;stroke-dasharray:none" />
      <path
         inkscape:connector-curvature="0"
         sodipodi:nodetypes="cc"
         id="path2220"
         d="m 190.93697,137.6516 14.17324,0"
         style="fill:none;stroke:#000000;stroke-width:3.54330587;stroke-linecap:butt;stroke-linejoin:miter;stroke-miterlimit:4;stroke-opacity:1;stroke-dasharray:none" />
      <path
         inkscape:connector-curvature="0"
         sodipodi:nodetypes="cc"
         id="path2222"
         d="m 212.1968,137.6516 14.17324,0"
         style="fill:none;stroke:#000000;stroke-width:3.54330802;stroke-linecap:square;stroke-linejoin:miter;stroke-miterlimit:4;stroke-opacity:1;stroke-dasharray:none" />
      <g
         transform="matrix(2,0,0,2,-258.79112,-56.482983)"
         id="g3965">
        <path
           inkscape:connector-curvature="0"
           sodipodi:nodetypes="cc"
           style="fill:none;stroke:#000000;stroke-width:1.00000095px;stroke-linecap:butt;stroke-linejoin:miter;stroke-opacity:1"
           d="m 224.86405,82.89405 0,7.086614"
           id="path3967" />
        <path
           inkscape:connector-curvature="0"
           sodipodi:nodetypes="cc"
           style="fill:none;stroke:#000000;stroke-width:1.00000095px;stroke-linecap:butt;stroke-linejoin:miter;stroke-opacity:1"
           d="m 228.40735,86.437357 -7.08661,0"
           id="path3969" />
      </g>
    </g>
    <path
       style="fill:none;stroke:#000000;stroke-width:3.54330516;stroke-linecap:square;stroke-linejoin:miter;stroke-miterlimit:4;stroke-opacity:1;stroke-dasharray:none"
       d="m -19.867614,1283.4256 -2e-5,339.7327"
       id="path7882"
       sodipodi:nodetypes="cc"
       inkscape:connector-curvature="0" />
    <path
       inkscape:connector-curvature="0"
       sodipodi:nodetypes="cc"
       id="path7884"
       d="m -16.844064,1283.371 14.17322,0"
       style="fill:none;stroke:#000000;stroke-width:3.54330516;stroke-linecap:square;stroke-linejoin:miter;stroke-miterlimit:4;stroke-opacity:1;stroke-dasharray:none" />
    <g
       style="display:inline"
       id="g2417-8"
       transform="matrix(0,-1,1,0,-313.23633,1851.4206)">
      <path
         inkscape:connector-curvature="0"
         sodipodi:nodetypes="cc"
         id="path5036-5"
         d="m 98.810987,293.55712 14.173223,0"
         style="fill:none;stroke:#000000;stroke-width:3.5439992;stroke-linecap:square;stroke-linejoin:miter;stroke-miterlimit:4;stroke-opacity:1;stroke-dasharray:none" />
      <path
         inkscape:connector-curvature="0"
         sodipodi:nodetypes="cc"
         id="path5038-3"
         d="m 148.41729,293.55712 40.55639,2e-5"
         style="fill:none;stroke:#000000;stroke-width:3.54330516;stroke-linecap:square;stroke-linejoin:miter;stroke-miterlimit:4;stroke-opacity:1;stroke-dasharray:none" />
      <rect
         y="286.47049"
         x="112.98426"
         height="14.173222"
         width="35.433048"
         id="rect5044-7"
         style="color:#000000;fill:none;stroke:#000000;stroke-width:3.54330707;stroke-linecap:square;stroke-linejoin:round;stroke-miterlimit:4;stroke-opacity:1;stroke-dasharray:none;stroke-dashoffset:0;marker:none;visibility:visible;display:inline;overflow:visible" />
    </g>
    <path
       inkscape:connector-curvature="0"
       sodipodi:nodetypes="cc"
       id="path7913"
       d="m -1.930281,1665.6752 -34.116178,-47.4774"
       style="fill:none;stroke:#000000;stroke-width:3.54330516;stroke-linecap:square;stroke-linejoin:miter;stroke-miterlimit:4;stroke-opacity:1;stroke-dasharray:none;marker-end:url(#Arrow1Send)" />
    <text
       sodipodi:linespacing="125%"
       id="text8675"
       y="1642.1089"
       x="-107.5768"
       style="font-size:32px;font-style:normal;font-weight:normal;text-align:center;line-height:125%;letter-spacing:0px;word-spacing:0px;text-anchor:middle;fill:#000000;fill-opacity:1;stroke:none;font-family:Sans"
       xml:space="preserve"><tspan
         style="font-size:24px;text-align:center;text-anchor:middle"
         y="1642.1089"
         x="-107.5768"
         id="tspan8677"
         sodipodi:role="line">V<tspan
   style="font-size:65.00091553%;text-align:center;text-anchor:middle;baseline-shift:sub"
   id="tspan8685">bias</tspan></tspan><tspan
         style="font-size:24px;text-align:center;text-anchor:middle"
         y="1672.1089"
         x="-107.5768"
         sodipodi:role="line"
         id="tspan8687">-40 .. 40 V</tspan></text>
    <text
       xml:space="preserve"
       style="font-size:32px;font-style:normal;font-weight:normal;line-height:125%;letter-spacing:0px;word-spacing:0px;fill:#000000;fill-opacity:1;stroke:none;font-family:Sans"
       x="-134.07384"
       y="1730.4254"
       id="text8681"
       sodipodi:linespacing="125%"><tspan
         sodipodi:role="line"
         id="tspan8683"
         x="-134.07384"
         y="1730.4254"
         style="font-size:24px">R=50 Ω</tspan></text>
    <g
       id="g8719"
       style="display:inline"
       transform="translate(40.348266,1568.7457)">
      <path
         style="fill:none;stroke:#000000;stroke-width:3.54330707;stroke-linecap:square;stroke-linejoin:miter;stroke-miterlimit:4;stroke-opacity:1;stroke-dasharray:none;display:inline"
         d="m 212.1968,201.43114 -42.51967,0"
         id="path8721"
         sodipodi:nodetypes="cc"
         inkscape:connector-curvature="0" />
      <path
         style="fill:none;stroke:#000000;stroke-width:3.54330587;stroke-linecap:butt;stroke-linejoin:miter;stroke-miterlimit:4;stroke-opacity:1;stroke-dasharray:none;display:inline"
         d="m 190.93697,187.2579 0,14.17324"
         id="path8723"
         sodipodi:nodetypes="cc"
         inkscape:connector-curvature="0" />
      <path
         style="fill:none;stroke:#000000;stroke-width:3.54330707;stroke-linecap:square;stroke-linejoin:miter;stroke-miterlimit:4;stroke-opacity:1;stroke-dasharray:none;display:inline"
         d="m 205.11019,208.51774 -28.34646,0"
         id="path8725"
         sodipodi:nodetypes="cc"
         inkscape:connector-curvature="0" />
      <path
         style="fill:none;stroke:#000000;stroke-width:3.54330707;stroke-linecap:square;stroke-linejoin:miter;stroke-miterlimit:4;stroke-opacity:1;stroke-dasharray:none;display:inline"
         d="m 198.02357,215.60436 -14.17322,0"
         id="path8727"
         sodipodi:nodetypes="cc"
         inkscape:connector-curvature="0" />
    </g>
    <path
       style="fill:none;stroke:#000000;stroke-width:3.54330516;stroke-linecap:square;stroke-linejoin:miter;stroke-miterlimit:4;stroke-opacity:1;stroke-dasharray:none"
       d="m -18.324092,1683.7787 55.151343,0"
       id="path5319"
       sodipodi:nodetypes="cc"
       inkscape:connector-curvature="0" />
    <g
       id="g8780"
       transform="matrix(0.79631227,0,0,0.79631227,-17.025193,367.68653)">
      <g
         transform="matrix(0,1,-1,0,1754.4446,1604.0286)"
         id="g8767">
        <path
           sodipodi:type="arc"
           style="color:#000000;fill:none;stroke:#000000;stroke-width:1.92675233;stroke-linecap:square;stroke-linejoin:miter;stroke-miterlimit:4;stroke-opacity:1;stroke-dasharray:none;stroke-dashoffset:0;marker:none;visibility:visible;display:inline;overflow:visible"
           id="path6422"
           sodipodi:cx="421.65353"
           sodipodi:cy="100.86611"
           sodipodi:rx="14.173228"
           sodipodi:ry="10.629921"
           d="m 435.82676,100.86611 c 0,5.87074 -6.34557,10.62992 -14.17323,10.62992 -7.82765,0 -14.17322,-4.75918 -14.17322,-10.62992 0,-5.870741 6.34557,-10.629919 14.17322,-10.629919 7.82766,0 14.17323,4.759178 14.17323,10.629919 z"
           transform="matrix(2,0,0,2.666666,-749.66783,1417.6752)" />
        <path
           style="fill:none;stroke:#000000;stroke-width:4.44964743;stroke-linecap:square;stroke-linejoin:miter;stroke-miterlimit:4;stroke-opacity:1;stroke-dasharray:none;display:inline"
           d="m 121.98567,1686.6513 15.89824,0"
           id="path6424"
           sodipodi:nodetypes="cc"
           inkscape:connector-curvature="0" />
        <path
           style="fill:none;stroke:#000000;stroke-width:4.44964743;stroke-linecap:square;stroke-linejoin:miter;stroke-miterlimit:4;stroke-opacity:1;stroke-dasharray:none;display:inline"
           d="m 50.099459,1686.6513 15.193291,0"
           id="path6426"
           sodipodi:nodetypes="cc"
           inkscape:connector-curvature="0" />
      </g>
      <text
         xml:space="preserve"
         style="font-size:32px;font-style:normal;font-weight:normal;line-height:125%;letter-spacing:0px;word-spacing:0px;fill:#000000;fill-opacity:1;stroke:none;font-family:Sans"
         x="55.746845"
         y="1703.7318"
         id="text8774"
         sodipodi:linespacing="125%"><tspan
           sodipodi:role="line"
           id="tspan8776"
           x="55.746845"
           y="1703.7318"
           style="font-size:24px">V<tspan
   id="tspan8778"
   style="font-size:65.00091553%;baseline-shift:sub">R</tspan></tspan></text>
    </g>
    <path
       inkscape:connector-curvature="0"
       sodipodi:nodetypes="cc"
       id="path8817"
       d="m 87.208613,1684.0594 53.186637,0"
       style="fill:none;stroke:#000000;stroke-width:3.54330516;stroke-linecap:square;stroke-linejoin:miter;stroke-miterlimit:4;stroke-opacity:1;stroke-dasharray:none" />
    <g
       transform="matrix(0.79631227,0,0,0.79631227,86.542807,367.9672)"
       id="g8819">
      <g
         id="g8821"
         transform="matrix(0,1,-1,0,1754.4446,1604.0286)">
        <path
           transform="matrix(2,0,0,2.666666,-749.66783,1417.6752)"
           d="m 435.82676,100.86611 c 0,5.87074 -6.34557,10.62992 -14.17323,10.62992 -7.82765,0 -14.17322,-4.75918 -14.17322,-10.62992 0,-5.870741 6.34557,-10.629919 14.17322,-10.629919 7.82766,0 14.17323,4.759178 14.17323,10.629919 z"
           sodipodi:ry="10.629921"
           sodipodi:rx="14.173228"
           sodipodi:cy="100.86611"
           sodipodi:cx="421.65353"
           id="path8823"
           style="color:#000000;fill:none;stroke:#000000;stroke-width:1.92675233;stroke-linecap:square;stroke-linejoin:miter;stroke-miterlimit:4;stroke-opacity:1;stroke-dasharray:none;stroke-dashoffset:0;marker:none;visibility:visible;display:inline;overflow:visible"
           sodipodi:type="arc" />
        <path
           inkscape:connector-curvature="0"
           sodipodi:nodetypes="cc"
           id="path8825"
           d="m 121.98567,1686.6513 15.89824,0"
           style="fill:none;stroke:#000000;stroke-width:4.44964743;stroke-linecap:square;stroke-linejoin:miter;stroke-miterlimit:4;stroke-opacity:1;stroke-dasharray:none;display:inline" />
        <path
           inkscape:connector-curvature="0"
           sodipodi:nodetypes="cc"
           id="path8827"
           d="m 50.099459,1686.6513 15.193291,0"
           style="fill:none;stroke:#000000;stroke-width:4.44964743;stroke-linecap:square;stroke-linejoin:miter;stroke-miterlimit:4;stroke-opacity:1;stroke-dasharray:none;display:inline" />
      </g>
      <text
         sodipodi:linespacing="125%"
         id="text8829"
         y="1705.0237"
         x="47.967995"
         style="font-size:26.0213604px;font-style:normal;font-weight:normal;line-height:125%;letter-spacing:0px;word-spacing:0px;fill:#000000;fill-opacity:1;stroke:none;font-family:Sans"
         xml:space="preserve"
         transform="scale(1.0012397,0.99876182)"><tspan
           style="font-size:19.51601982px"
           y="1705.0237"
           x="47.967995"
           id="tspan8831"
           sodipodi:role="line">V<tspan
   style="font-size:12.6855917px;baseline-shift:sub"
   id="tspan8833">BIAS</tspan></tspan></text>
    </g>
    <g
       transform="matrix(0,-1,1,0,-207.42296,1858.7181)"
       id="g8845"
       style="display:inline">
      <path
         style="fill:none;stroke:#000000;stroke-width:3.5439992;stroke-linecap:square;stroke-linejoin:miter;stroke-miterlimit:4;stroke-opacity:1;stroke-dasharray:none"
         d="m 103.30174,293.55712 9.68247,0"
         id="path8847"
         sodipodi:nodetypes="cc"
         inkscape:connector-curvature="0" />
      <path
         style="fill:none;stroke:#000000;stroke-width:3.54330516;stroke-linecap:square;stroke-linejoin:miter;stroke-miterlimit:4;stroke-opacity:1;stroke-dasharray:none"
         d="m 148.41729,293.55712 40.55639,2e-5"
         id="path8849"
         sodipodi:nodetypes="cc"
         inkscape:connector-curvature="0" />
      <rect
         style="color:#000000;fill:none;stroke:#000000;stroke-width:3.54330707;stroke-linecap:square;stroke-linejoin:round;stroke-miterlimit:4;stroke-opacity:1;stroke-dasharray:none;stroke-dashoffset:0;marker:none;visibility:visible;display:inline;overflow:visible"
         id="rect8851"
         width="35.433048"
         height="14.173222"
         x="112.98426"
         y="286.47049" />
    </g>
    <g
       id="g8853"
       style="display:inline"
       transform="translate(-129.38274,1568.4706)">
      <path
         style="fill:none;stroke:#000000;stroke-width:3.54330707;stroke-linecap:square;stroke-linejoin:miter;stroke-miterlimit:4;stroke-opacity:1;stroke-dasharray:none;display:inline"
         d="m 212.1968,201.43114 -42.51967,0"
         id="path8855"
         sodipodi:nodetypes="cc"
         inkscape:connector-curvature="0" />
      <path
         style="fill:none;stroke:#000000;stroke-width:3.54330587;stroke-linecap:butt;stroke-linejoin:miter;stroke-miterlimit:4;stroke-opacity:1;stroke-dasharray:none;display:inline"
         d="m 190.93697,187.2579 0,14.17324"
         id="path8857"
         sodipodi:nodetypes="cc"
         inkscape:connector-curvature="0" />
      <path
         style="fill:none;stroke:#000000;stroke-width:3.54330707;stroke-linecap:square;stroke-linejoin:miter;stroke-miterlimit:4;stroke-opacity:1;stroke-dasharray:none;display:inline"
         d="m 205.11019,208.51774 -28.34646,0"
         id="path8859"
         sodipodi:nodetypes="cc"
         inkscape:connector-curvature="0" />
      <path
         style="fill:none;stroke:#000000;stroke-width:3.54330707;stroke-linecap:square;stroke-linejoin:miter;stroke-miterlimit:4;stroke-opacity:1;stroke-dasharray:none;display:inline"
         d="m 198.02357,215.60436 -14.17322,0"
         id="path8861"
         sodipodi:nodetypes="cc"
         inkscape:connector-curvature="0" />
    </g>
    <path
       inkscape:connector-curvature="0"
       sodipodi:nodetypes="cc"
       id="path8891"
       d="m -19.727452,1755.6308 160.403372,0"
       style="fill:none;stroke:#000000;stroke-width:3.54330516;stroke-linecap:square;stroke-linejoin:miter;stroke-miterlimit:4;stroke-opacity:1;stroke-dasharray:none" />
    <g
       style="display:inline"
       id="g8893"
       transform="matrix(0,-1,1,0,-207.42296,1775.7597)">
      <path
         inkscape:connector-curvature="0"
         sodipodi:nodetypes="cc"
         id="path8895"
         d="m 103.30174,293.55712 9.68247,0"
         style="fill:none;stroke:#000000;stroke-width:3.5439992;stroke-linecap:square;stroke-linejoin:miter;stroke-miterlimit:4;stroke-opacity:1;stroke-dasharray:none" />
      <path
         inkscape:connector-curvature="0"
         sodipodi:nodetypes="cc"
         id="path8897"
         d="m 148.41729,293.55712 40.55639,2e-5"
         style="fill:none;stroke:#000000;stroke-width:3.54330516;stroke-linecap:square;stroke-linejoin:miter;stroke-miterlimit:4;stroke-opacity:1;stroke-dasharray:none" />
      <rect
         y="286.47049"
         x="112.98426"
         height="14.173222"
         width="35.433048"
         id="rect8899"
         style="color:#000000;fill:none;stroke:#000000;stroke-width:3.54330707;stroke-linecap:square;stroke-linejoin:round;stroke-miterlimit:4;stroke-opacity:1;stroke-dasharray:none;stroke-dashoffset:0;marker:none;visibility:visible;display:inline;overflow:visible" />
    </g>
    <path
       style="fill:none;stroke:#000000;stroke-width:3.54330516;stroke-linecap:square;stroke-linejoin:miter;stroke-miterlimit:4;stroke-opacity:1;stroke-dasharray:none"
       d="m -19.168695,1585.2238 105.1845,0"
       id="path8901"
       sodipodi:nodetypes="cc"
       inkscape:connector-curvature="0" />
    <path
       transform="matrix(2.5859471,0,0,2.5859471,-800.96722,-209.05688)"
       d="m 424.28623,487.68692 a 115.17954,115.17954 0 1 1 -230.35908,0 115.17954,115.17954 0 1 1 230.35908,0 z"
       sodipodi:ry="115.17954"
       sodipodi:rx="115.17954"
       sodipodi:cy="487.68692"
       sodipodi:cx="309.10669"
       id="path9131"
       style="fill:url(#radialGradient9147);stroke:#000000;stroke-width:0.15209402;stroke-miterlimit:4;stroke-opacity:1;stroke-dasharray:none;fill-opacity:1"
       sodipodi:type="arc" />
    <path
       sodipodi:type="arc"
       style="fill:none;stroke:#000000;stroke-width:1.63686037;stroke-miterlimit:4;stroke-opacity:1;stroke-dasharray:none"
       id="path4528"
       sodipodi:cx="309.10669"
       sodipodi:cy="487.68692"
       sodipodi:rx="115.17954"
       sodipodi:ry="115.17954"
       d="m 424.28623,487.68692 a 115.17954,115.17954 0 1 1 -230.35908,0 115.17954,115.17954 0 1 1 230.35908,0 z"
       transform="matrix(1.4523101,-2.6872943,2.6872943,1.4523101,-1761.1107,1174.4637)" />
    <text
       xml:space="preserve"
       style="font-size:32px;font-style:normal;font-weight:normal;line-height:125%;letter-spacing:0px;word-spacing:0px;fill:#000000;fill-opacity:1;stroke:none;font-family:Sans"
       id="text9170"
       sodipodi:linespacing="125%"
       transform="translate(3.52737,-7.05474)"><textPath
         xlink:href="#path4528"
         id="textPath9199"><tspan
   id="tspan9172">chamber</tspan></textPath></text>
    <text
       sodipodi:linespacing="125%"
       id="text9202"
       style="font-size:32px;font-style:normal;font-weight:normal;line-height:125%;letter-spacing:0px;word-spacing:0px;fill:#000000;fill-opacity:1;stroke:none;font-family:Sans"
       xml:space="preserve"
       transform="translate(-33.510015,31.74633)"><textPath
         id="textPath9204"
         xlink:href="#path4528">plasma radius</textPath></text>
    <text
       xml:space="preserve"
       style="font-size:32px;font-style:normal;font-weight:normal;line-height:125%;letter-spacing:0px;word-spacing:0px;fill:#000000;fill-opacity:1;stroke:none;font-family:Sans"
       x="-1546.4067"
       y="-46.947849"
       id="text9208"
       sodipodi:linespacing="125%"
       transform="matrix(0,-1,1,0,0,0)"><tspan
         sodipodi:role="line"
         id="tspan9210"
         x="-1546.4067"
         y="-46.947849">rake probe</tspan></text>
    <text
       sodipodi:linespacing="125%"
       id="text9212"
       y="108.77363"
       x="-1749.6824"
       style="font-size:32px;font-style:normal;font-weight:normal;line-height:125%;letter-spacing:0px;word-spacing:0px;fill:#000000;fill-opacity:1;stroke:none;font-family:Sans"
       xml:space="preserve"
       transform="matrix(0,-1,1,0,0,0)"><tspan
         style="font-size:14px"
         y="108.77363"
         x="-1749.6824"
         id="tspan9214"
         sodipodi:role="line">100kΩ</tspan></text>
    <text
       transform="matrix(0,-1,1,0,0,0)"
       xml:space="preserve"
       style="font-size:32px;font-style:normal;font-weight:normal;line-height:125%;letter-spacing:0px;word-spacing:0px;fill:#000000;fill-opacity:1;stroke:none;font-family:Sans"
       x="-1668.1597"
       y="109.56897"
       id="text9216"
       sodipodi:linespacing="125%"><tspan
         sodipodi:role="line"
         id="tspan9218"
         x="-1668.1597"
         y="109.56897"
         style="font-size:14px">300kΩ</tspan></text>
  </g>
</svg>
