<?xml version="1.0" encoding="UTF-8" standalone="no"?>
<!-- Created with Inkscape (http://www.inkscape.org/) -->

<svg
   xmlns:dc="http://purl.org/dc/elements/1.1/"
   xmlns:cc="http://creativecommons.org/ns#"
   xmlns:rdf="http://www.w3.org/1999/02/22-rdf-syntax-ns#"
   xmlns:svg="http://www.w3.org/2000/svg"
   xmlns="http://www.w3.org/2000/svg"
   xmlns:xlink="http://www.w3.org/1999/xlink"
   xmlns:sodipodi="http://sodipodi.sourceforge.net/DTD/sodipodi-0.dtd"
   xmlns:inkscape="http://www.inkscape.org/namespaces/inkscape"
   width="756.02649"
   height="913.61938"
   id="svg4507"
   version="1.1"
   inkscape:version="0.91 r"
   sodipodi:docname="expsetup.svg"
   inkscape:export-filename="/golem/svoboda/Dirigent/Diagnostics/DoubleRakeProbe/setup.png"
   inkscape:export-xdpi="17.860001"
   inkscape:export-ydpi="17.860001"
   viewBox="0 0 708.77483 856.51815">
  <defs
     id="defs4509">
    <linearGradient
       inkscape:collect="always"
       id="linearGradient9141">
      <stop
         style="stop-color:#ff0000;stop-opacity:1;"
         offset="0"
         id="stop9143" />
      <stop
         style="stop-color:#ff0000;stop-opacity:0;"
         offset="1"
         id="stop9145" />
    </linearGradient>
    <marker
       inkscape:stockid="Arrow1Mstart"
       orient="auto"
       refY="0"
       refX="0"
       id="Arrow1Mstart"
       style="overflow:visible">
      <path
         id="path3949"
         d="M 0,0 5,-5 -12.5,0 5,5 Z"
         style="fill-rule:evenodd;stroke:#000000;stroke-width:1pt"
         transform="matrix(0.4,0,0,0.4,4,0)"
         inkscape:connector-curvature="0" />
    </marker>
    <marker
       inkscape:stockid="Arrow1Send"
       orient="auto"
       refY="0"
       refX="0"
       id="Arrow1Send"
       style="overflow:visible">
      <path
         id="path3958"
         d="M 0,0 5,-5 -12.5,0 5,5 Z"
         style="fill-rule:evenodd;stroke:#000000;stroke-width:1pt"
         transform="matrix(-0.2,0,0,-0.2,-1.2,0)"
         inkscape:connector-curvature="0" />
    </marker>
    <marker
       inkscape:stockid="Arrow1Mend"
       orient="auto"
       refY="0"
       refX="0"
       id="Arrow1Mend"
       style="overflow:visible">
      <path
         id="path3952"
         d="M 0,0 5,-5 -12.5,0 5,5 Z"
         style="fill-rule:evenodd;stroke:#000000;stroke-width:1pt"
         transform="matrix(-0.4,0,0,-0.4,-4,0)"
         inkscape:connector-curvature="0" />
    </marker>
    <marker
       inkscape:stockid="Arrow2Mend"
       orient="auto"
       refY="0"
       refX="0"
       id="Arrow2Mend"
       style="overflow:visible">
      <path
         id="path3970"
         style="fill-rule:evenodd;stroke-width:0.625;stroke-linejoin:round"
         d="M 8.7185878,4.0337352 -2.2072895,0.01601326 8.7185884,-4.0017078 c -1.7454984,2.3720609 -1.7354408,5.6174519 -6e-7,8.035443 z"
         transform="scale(-0.6,-0.6)"
         inkscape:connector-curvature="0" />
    </marker>
    <marker
       inkscape:stockid="Arrow1Lend"
       orient="auto"
       refY="0"
       refX="0"
       id="Arrow1Lend"
       style="overflow:visible">
      <path
         id="path3946"
         d="M 0,0 5,-5 -12.5,0 5,5 Z"
         style="fill-rule:evenodd;stroke:#000000;stroke-width:1pt"
         transform="matrix(-0.8,0,0,-0.8,-10,0)"
         inkscape:connector-curvature="0" />
    </marker>
    <linearGradient
       inkscape:collect="always"
       id="linearGradient3790">
      <stop
         style="stop-color:#ff0000;stop-opacity:1;"
         offset="0"
         id="stop3792" />
      <stop
         style="stop-color:#ff0000;stop-opacity:0;"
         offset="1"
         id="stop3794" />
    </linearGradient>
    <radialGradient
       inkscape:collect="always"
       xlink:href="#linearGradient3790"
       id="radialGradient3796"
       cx="309.10669"
       cy="487.68692"
       fx="309.10669"
       fy="487.68692"
       r="115.17954"
       gradientUnits="userSpaceOnUse" />
    <radialGradient
       inkscape:collect="always"
       xlink:href="#linearGradient3790"
       id="radialGradient9017"
       gradientUnits="userSpaceOnUse"
       cx="309.10669"
       cy="487.68692"
       fx="309.10669"
       fy="487.68692"
       r="115.17954"
       gradientTransform="translate(-220.16185,269.0694)" />
    <radialGradient
       inkscape:collect="always"
       xlink:href="#linearGradient9141"
       id="radialGradient9147"
       cx="309.10669"
       cy="487.68692"
       fx="309.10669"
       fy="487.68692"
       r="116.14631"
       gradientUnits="userSpaceOnUse" />
  </defs>
  <sodipodi:namedview
     id="base"
     pagecolor="#ffffff"
     bordercolor="#666666"
     borderopacity="1.0"
     inkscape:pageopacity="0.0"
     inkscape:pageshadow="2"
     inkscape:zoom="0.76559186"
     inkscape:cx="116.54817"
     inkscape:cy="328.14813"
     inkscape:document-units="mm"
     inkscape:current-layer="layer1"
     showgrid="false"
     inkscape:window-width="2048"
     inkscape:window-height="1100"
     inkscape:window-x="-3"
     inkscape:window-y="-3"
     inkscape:window-maximized="1"
     showguides="true"
     inkscape:guide-bbox="true"
     units="mm"
     fit-margin-top="0"
     fit-margin-left="0"
     fit-margin-right="0"
     fit-margin-bottom="0" />
  <metadata
     id="metadata4512">
    <rdf:RDF>
      <cc:Work
         rdf:about="">
        <dc:format>image/svg+xml</dc:format>
        <dc:type
           rdf:resource="http://purl.org/dc/dcmitype/StillImage" />
        <dc:title></dc:title>
      </cc:Work>
    </rdf:RDF>
  </metadata>
  <g
     inkscape:label="Layer 1"
     inkscape:groupmode="layer"
     id="layer1"
     transform="translate(356.02108,-697.6883)">
    <circle
       transform="matrix(2.5859471,0,0,2.5859471,-800.96722,-209.05688)"
       id="path9131"
       style="fill:url(#radialGradient9147);fill-opacity:1;stroke:#000000;stroke-width:0.15209402;stroke-miterlimit:4;stroke-dasharray:none;stroke-opacity:1"
       cx="309.10669"
       cy="487.68692"
       r="115.17954" />
    <circle
       id="path3788"
       style="fill:url(#radialGradient9017);fill-opacity:1;stroke:none"
       cx="309.10669"
       cy="487.68692"
       transform="matrix(2.5833146,0,0,2.5931784,-800.15352,-213.71965)"
       r="115.17954" />
    <rect
       style="fill:#ffffff;fill-opacity:1;stroke:#000000;stroke-opacity:1"
       id="rect3798"
       width="35.433071"
       height="283.46457"
       x="-21.863955"
       y="1270.2419" />
    <g
       id="g3438"
       transform="translate(0.35491804,-56.668385)">
      <g
         transform="matrix(0.46740966,0,0,1.040597,-2.6096771,238.10646)"
         id="g3842">
        <path
           inkscape:tile-y0="1071.9647"
           inkscape:tile-x0="5.305915"
           inkscape:tile-h="0"
           inkscape:tile-w="6.932734"
           inkscape:tile-cy="1071.9647"
           inkscape:tile-cx="8.772282"
           inkscape:connector-curvature="0"
           sodipodi:nodetypes="cc"
           id="path3844"
           d="m 12.238649,1071.9647 -6.932734,0"
           style="fill:none;stroke:#000000;stroke-width:3.54330516;stroke-linecap:square;stroke-linejoin:miter;stroke-miterlimit:4;stroke-dasharray:none;stroke-opacity:1" />
        <path
           style="fill:none;stroke:#000000;stroke-width:3.54330516;stroke-linecap:square;stroke-linejoin:miter;stroke-miterlimit:4;stroke-dasharray:none;stroke-opacity:1"
           d="m 12.324226,1080.5932 -6.9327334,0"
           id="path3846"
           sodipodi:nodetypes="cc"
           inkscape:connector-curvature="0"
           inkscape:tile-cx="8.772282"
           inkscape:tile-cy="1071.9647"
           inkscape:tile-w="6.932734"
           inkscape:tile-h="0"
           inkscape:tile-x0="5.305915"
           inkscape:tile-y0="1071.9647" />
        <path
           style="fill:none;stroke:#000000;stroke-width:3.54330516;stroke-linecap:square;stroke-linejoin:miter;stroke-miterlimit:4;stroke-dasharray:none;stroke-opacity:1"
           d="m 12.238649,1089.746 -6.932734,0"
           id="path3848"
           sodipodi:nodetypes="cc"
           inkscape:connector-curvature="0"
           inkscape:tile-cx="8.772282"
           inkscape:tile-cy="1071.9647"
           inkscape:tile-w="6.932734"
           inkscape:tile-h="0"
           inkscape:tile-x0="5.305915"
           inkscape:tile-y0="1071.9647" />
        <path
           inkscape:tile-y0="1071.9647"
           inkscape:tile-x0="5.305915"
           inkscape:tile-h="0"
           inkscape:tile-w="6.932734"
           inkscape:tile-cy="1071.9647"
           inkscape:tile-cx="8.772282"
           inkscape:connector-curvature="0"
           sodipodi:nodetypes="cc"
           id="path3850"
           d="m 12.324226,1098.3745 -6.9327334,0"
           style="fill:none;stroke:#000000;stroke-width:3.54330516;stroke-linecap:square;stroke-linejoin:miter;stroke-miterlimit:4;stroke-dasharray:none;stroke-opacity:1" />
      </g>
      <g
         id="g3852"
         transform="matrix(0.46740966,0,0,1.040597,-2.4926949,273.20112)">
        <path
           style="fill:none;stroke:#000000;stroke-width:3.54330516;stroke-linecap:square;stroke-linejoin:miter;stroke-miterlimit:4;stroke-dasharray:none;stroke-opacity:1"
           d="m 12.238649,1071.9647 -6.932734,0"
           id="path3854"
           sodipodi:nodetypes="cc"
           inkscape:connector-curvature="0"
           inkscape:tile-cx="8.772282"
           inkscape:tile-cy="1071.9647"
           inkscape:tile-w="6.932734"
           inkscape:tile-h="0"
           inkscape:tile-x0="5.305915"
           inkscape:tile-y0="1071.9647" />
        <path
           inkscape:tile-y0="1071.9647"
           inkscape:tile-x0="5.305915"
           inkscape:tile-h="0"
           inkscape:tile-w="6.932734"
           inkscape:tile-cy="1071.9647"
           inkscape:tile-cx="8.772282"
           inkscape:connector-curvature="0"
           sodipodi:nodetypes="cc"
           id="path3856"
           d="m 12.324226,1080.5932 -6.9327334,0"
           style="fill:none;stroke:#000000;stroke-width:3.54330516;stroke-linecap:square;stroke-linejoin:miter;stroke-miterlimit:4;stroke-dasharray:none;stroke-opacity:1" />
        <path
           inkscape:tile-y0="1071.9647"
           inkscape:tile-x0="5.305915"
           inkscape:tile-h="0"
           inkscape:tile-w="6.932734"
           inkscape:tile-cy="1071.9647"
           inkscape:tile-cx="8.772282"
           inkscape:connector-curvature="0"
           sodipodi:nodetypes="cc"
           id="path3858"
           d="m 12.238649,1089.746 -6.932734,0"
           style="fill:none;stroke:#000000;stroke-width:3.54330516;stroke-linecap:square;stroke-linejoin:miter;stroke-miterlimit:4;stroke-dasharray:none;stroke-opacity:1" />
        <path
           style="fill:none;stroke:#000000;stroke-width:3.54330516;stroke-linecap:square;stroke-linejoin:miter;stroke-miterlimit:4;stroke-dasharray:none;stroke-opacity:1"
           d="m 12.324226,1098.3745 -6.9327334,0"
           id="path3860"
           sodipodi:nodetypes="cc"
           inkscape:connector-curvature="0"
           inkscape:tile-cx="8.772282"
           inkscape:tile-cy="1071.9647"
           inkscape:tile-w="6.932734"
           inkscape:tile-h="0"
           inkscape:tile-x0="5.305915"
           inkscape:tile-y0="1071.9647" />
      </g>
    </g>
    <text
       xml:space="preserve"
       style="font-style:normal;font-weight:normal;line-height:0%;font-family:sans-serif;letter-spacing:0px;word-spacing:0px;fill:#000000;fill-opacity:1;stroke:none"
       x="-280.97061"
       y="1039.6281"
       id="text6305"
       sodipodi:linespacing="0%"><tspan
         sodipodi:role="line"
         id="tspan6307"
         x="-280.97061"
         y="1039.6281"
         style="font-size:32px;line-height:1.25;font-family:sans-serif">HFS</tspan></text>
    <text
       id="text6309"
       y="1041.4159"
       x="227.59439"
       style="font-style:normal;font-weight:normal;line-height:0%;font-family:sans-serif;letter-spacing:0px;word-spacing:0px;fill:#000000;fill-opacity:1;stroke:none"
       xml:space="preserve"
       sodipodi:linespacing="0%"><tspan
         y="1041.4159"
         x="227.59439"
         id="tspan6311"
         sodipodi:role="line"
         style="font-size:32px;line-height:1.25;font-family:sans-serif">LFS</tspan></text>
    <text
       id="text6313"
       y="1426.6345"
       x="-69.966583"
       style="font-style:normal;font-weight:normal;font-size:6.28123903px;line-height:0%;font-family:sans-serif;letter-spacing:0px;word-spacing:0px;fill:#000000;fill-opacity:1;stroke:none"
       xml:space="preserve"
       sodipodi:linespacing="0%"
       transform="scale(1.0971163,0.9114804)"><tspan
         style="font-size:12.56247807px;line-height:1.25;font-family:sans-serif"
         y="1426.6345"
         x="-69.966583"
         id="tspan6315"
         sodipodi:role="line">DRP-L<tspan
   style="font-size:8.16572571px;font-family:sans-serif;baseline-shift:sub"
   id="tspan6319">1</tspan></tspan></text>
    <circle
       style="fill:none;stroke:#000000;stroke-width:1.63686037;stroke-miterlimit:4;stroke-dasharray:none;stroke-opacity:1"
       id="path4528"
       transform="matrix(1.4523101,-2.6872943,2.6872943,1.4523101,-1761.1107,1174.4637)"
       cx="309.10669"
       cy="487.68692"
       r="115.17954" />
    <text
       xml:space="preserve"
       style="font-style:normal;font-weight:normal;font-size:32px;line-height:0%;font-family:sans-serif;letter-spacing:0px;word-spacing:0px;fill:#000000;fill-opacity:1;stroke:none"
       id="text9170"
       transform="translate(3.52737,-7.05474)"
       sodipodi:linespacing="0%"><textPath
         xlink:href="#path4528"
         id="textPath9199"
         style="font-family:sans-serif"><tspan
   id="tspan9172"
   style="font-family:sans-serif">chamber</tspan></textPath></text>
    <text
       id="text9202"
       style="font-style:normal;font-weight:normal;font-size:32px;line-height:0%;font-family:sans-serif;letter-spacing:0px;word-spacing:0px;fill:#000000;fill-opacity:1;stroke:none"
       xml:space="preserve"
       transform="translate(-33.510015,31.74633)"
       sodipodi:linespacing="0%"><textPath
         id="textPath9204"
         xlink:href="#path4528"
         style="font-family:sans-serif">plasma radius</textPath></text>
    <text
       xml:space="preserve"
       style="font-style:normal;font-weight:normal;line-height:0%;font-family:sans-serif;letter-spacing:0px;word-spacing:0px;fill:#000000;fill-opacity:1;stroke:none"
       x="-1547.7728"
       y="-72.958839"
       id="text9208"
       transform="matrix(0,-1,1,0,0,0)"
       sodipodi:linespacing="0%"><tspan
         sodipodi:role="line"
         id="tspan9210"
         x="-1547.7728"
         y="-72.958839"
         style="font-size:32px;line-height:1.25;font-family:sans-serif">Double</tspan><tspan
         sodipodi:role="line"
         x="-1547.7728"
         y="-32.958839"
         style="font-size:32px;line-height:1.25;font-family:sans-serif"
         id="tspan3496">rake probe</tspan></text>
    <g
       id="g3450"
       transform="translate(-13.444581,-56.976336)">
      <g
         id="g3452"
         transform="matrix(0.46740966,0,0,1.040597,-2.6096771,238.10646)">
        <path
           style="fill:none;stroke:#000000;stroke-width:3.54330516;stroke-linecap:square;stroke-linejoin:miter;stroke-miterlimit:4;stroke-dasharray:none;stroke-opacity:1"
           d="m 12.238649,1071.9647 -6.932734,0"
           id="path3454"
           sodipodi:nodetypes="cc"
           inkscape:connector-curvature="0"
           inkscape:tile-cx="8.772282"
           inkscape:tile-cy="1071.9647"
           inkscape:tile-w="6.932734"
           inkscape:tile-h="0"
           inkscape:tile-x0="5.305915"
           inkscape:tile-y0="1071.9647" />
        <path
           inkscape:tile-y0="1071.9647"
           inkscape:tile-x0="5.305915"
           inkscape:tile-h="0"
           inkscape:tile-w="6.932734"
           inkscape:tile-cy="1071.9647"
           inkscape:tile-cx="8.772282"
           inkscape:connector-curvature="0"
           sodipodi:nodetypes="cc"
           id="path3456"
           d="m 12.324226,1080.5932 -6.9327334,0"
           style="fill:none;stroke:#000000;stroke-width:3.54330516;stroke-linecap:square;stroke-linejoin:miter;stroke-miterlimit:4;stroke-dasharray:none;stroke-opacity:1" />
        <path
           inkscape:tile-y0="1071.9647"
           inkscape:tile-x0="5.305915"
           inkscape:tile-h="0"
           inkscape:tile-w="6.932734"
           inkscape:tile-cy="1071.9647"
           inkscape:tile-cx="8.772282"
           inkscape:connector-curvature="0"
           sodipodi:nodetypes="cc"
           id="path3458"
           d="m 12.238649,1089.746 -6.932734,0"
           style="fill:none;stroke:#000000;stroke-width:3.54330516;stroke-linecap:square;stroke-linejoin:miter;stroke-miterlimit:4;stroke-dasharray:none;stroke-opacity:1" />
        <path
           style="fill:none;stroke:#000000;stroke-width:3.54330516;stroke-linecap:square;stroke-linejoin:miter;stroke-miterlimit:4;stroke-dasharray:none;stroke-opacity:1"
           d="m 12.324226,1098.3745 -6.9327334,0"
           id="path3460"
           sodipodi:nodetypes="cc"
           inkscape:connector-curvature="0"
           inkscape:tile-cx="8.772282"
           inkscape:tile-cy="1071.9647"
           inkscape:tile-w="6.932734"
           inkscape:tile-h="0"
           inkscape:tile-x0="5.305915"
           inkscape:tile-y0="1071.9647" />
      </g>
      <g
         transform="matrix(0.46740966,0,0,1.040597,-2.4926949,273.20112)"
         id="g3462">
        <path
           inkscape:tile-y0="1071.9647"
           inkscape:tile-x0="5.305915"
           inkscape:tile-h="0"
           inkscape:tile-w="6.932734"
           inkscape:tile-cy="1071.9647"
           inkscape:tile-cx="8.772282"
           inkscape:connector-curvature="0"
           sodipodi:nodetypes="cc"
           id="path3464"
           d="m 12.238649,1071.9647 -6.932734,0"
           style="fill:none;stroke:#000000;stroke-width:3.54330516;stroke-linecap:square;stroke-linejoin:miter;stroke-miterlimit:4;stroke-dasharray:none;stroke-opacity:1" />
        <path
           style="fill:none;stroke:#000000;stroke-width:3.54330516;stroke-linecap:square;stroke-linejoin:miter;stroke-miterlimit:4;stroke-dasharray:none;stroke-opacity:1"
           d="m 12.324226,1080.5932 -6.9327334,0"
           id="path3466"
           sodipodi:nodetypes="cc"
           inkscape:connector-curvature="0"
           inkscape:tile-cx="8.772282"
           inkscape:tile-cy="1071.9647"
           inkscape:tile-w="6.932734"
           inkscape:tile-h="0"
           inkscape:tile-x0="5.305915"
           inkscape:tile-y0="1071.9647" />
        <path
           style="fill:none;stroke:#000000;stroke-width:3.54330516;stroke-linecap:square;stroke-linejoin:miter;stroke-miterlimit:4;stroke-dasharray:none;stroke-opacity:1"
           d="m 12.238649,1089.746 -6.932734,0"
           id="path3468"
           sodipodi:nodetypes="cc"
           inkscape:connector-curvature="0"
           inkscape:tile-cx="8.772282"
           inkscape:tile-cy="1071.9647"
           inkscape:tile-w="6.932734"
           inkscape:tile-h="0"
           inkscape:tile-x0="5.305915"
           inkscape:tile-y0="1071.9647" />
        <path
           inkscape:tile-y0="1071.9647"
           inkscape:tile-x0="5.305915"
           inkscape:tile-h="0"
           inkscape:tile-w="6.932734"
           inkscape:tile-cy="1071.9647"
           inkscape:tile-cx="8.772282"
           inkscape:connector-curvature="0"
           sodipodi:nodetypes="cc"
           id="path3470"
           d="m 12.324226,1098.3745 -6.9327334,0"
           style="fill:none;stroke:#000000;stroke-width:3.54330516;stroke-linecap:square;stroke-linejoin:miter;stroke-miterlimit:4;stroke-dasharray:none;stroke-opacity:1" />
      </g>
    </g>
    <text
       transform="scale(1.0971163,0.9114804)"
       sodipodi:linespacing="0%"
       xml:space="preserve"
       style="font-style:normal;font-weight:normal;font-size:6.28123903px;line-height:0%;font-family:sans-serif;letter-spacing:0px;word-spacing:0px;fill:#000000;fill-opacity:1;stroke:none"
       x="-69.730431"
       y="1492.5782"
       id="text3478"><tspan
         sodipodi:role="line"
         id="tspan3480"
         x="-69.730431"
         y="1492.5782"
         style="font-size:12.56247807px;line-height:1.25;font-family:sans-serif">DRP-L<tspan
   id="tspan3482"
   style="font-size:8.16572571px;font-family:sans-serif;baseline-shift:sub">8</tspan></tspan></text>
    <text
       transform="scale(1.0971163,0.9114804)"
       sodipodi:linespacing="0%"
       xml:space="preserve"
       style="font-style:normal;font-weight:normal;font-size:6.28123903px;line-height:0%;font-family:sans-serif;letter-spacing:0px;word-spacing:0px;fill:#000000;fill-opacity:1;stroke:none"
       x="17.643553"
       y="1425.2134"
       id="text3484"><tspan
         sodipodi:role="line"
         id="tspan3486"
         x="17.643553"
         y="1425.2134"
         style="font-size:12.56247807px;line-height:1.25;font-family:sans-serif">DRP-R<tspan
   id="tspan3488"
   style="font-size:8.16572571px;font-family:sans-serif;baseline-shift:sub">1</tspan></tspan></text>
    <text
       id="text3490"
       y="1493.9995"
       x="18.588137"
       style="font-style:normal;font-weight:normal;font-size:6.28123903px;line-height:0%;font-family:sans-serif;letter-spacing:0px;word-spacing:0px;fill:#000000;fill-opacity:1;stroke:none"
       xml:space="preserve"
       sodipodi:linespacing="0%"
       transform="scale(1.0971163,0.9114804)"
       inkscape:transform-center-x="2.5907951"
       inkscape:transform-center-y="-9.0677827"><tspan
         style="font-size:12.56247807px;line-height:1.25;font-family:sans-serif"
         y="1493.9995"
         x="18.588137"
         id="tspan3492"
         sodipodi:role="line">DRP-R<tspan
   style="font-size:8.16572571px;font-family:sans-serif;baseline-shift:sub"
   id="tspan3494">8</tspan></tspan></text>
  </g>
</svg>
